Division,WeightClassKg,Place,Name,Team,BodyweightKg,Best3SquatKg,Best3BenchKg,Best3DeadliftKg,TotalKg,Equipment,Event,Sex,BirthDate
Boys,51.71,1,Mark Ochoa,Gregory-Portland,50.89,142.88,92.99,167.83,403.7,Unlimited,SBD,M,
Boys,51.71,2,Ezekiel Carrizales,Corpus Christi Calallen,51.53,117.93,79.38,131.54,328.85,Unlimited,SBD,M,
Boys,55.79,1,Connor Rackley,Corpus Christi Calallen,55.7,172.37,106.59,161.03,439.98,Unlimited,SBD,M,
Boys,55.79,DQ,Caleb De La Cerda,Corpus Christi Tuloso-Midway,55.43,183.7,,,,Unlimited,SBD,M,
Boys,59.87,1,Patrick Barnett,Corpus Christi Calallen,59.87,190.51,97.52,190.51,478.54,Unlimited,SBD,M,
Boys,59.87,2,David Salinas,Corpus Christi Calallen,59.87,154.22,108.86,161.03,424.11,Unlimited,SBD,M,
Boys,59.87,3,Isreal Perez,Corpus Christi Tuloso-Midway,59.15,151.95,90.72,158.76,401.43,Unlimited,SBD,M,
Boys,59.87,4,Aaron Trujillo,Gregory-Portland,58.51,156.49,95.25,136.08,387.82,Unlimited,SBD,M,
Boys,59.87,5,Trey Gonzales,Corpus Christi Calallen,59.6,127.01,88.45,158.76,374.21,Unlimited,SBD,M,
Boys,59.87,6,Brandon Acosta,Corpus Christi Calallen,59.69,138.35,88.45,140.61,367.41,Unlimited,SBD,M,
Boys,59.87,7,Tristan Trevino,Woodsboro,58.51,117.93,43.09,108.86,269.89,Unlimited,SBD,M,
Boys,67.13,1,Jaiden Gutierrez,Corpus Christi Tuloso-Midway,66.77,215.46,124.74,215.46,555.65,Unlimited,SBD,M,
Boys,67.13,2,Juan Maldonado,Corpus Christi Tuloso-Midway,66.59,179.17,115.67,215.46,510.29,Unlimited,SBD,M,
Boys,67.13,3,Pedro Garcia,Corpus Christi Calallen,63.5,174.63,120.2,210.92,505.76,Unlimited,SBD,M,
Boys,67.13,4,Byron Carter,Orange Grove,62.96,156.49,115.67,172.37,444.52,Unlimited,SBD,M,
Boys,67.13,5,Manuel Lopez,Orange Grove,64.41,142.88,86.18,161.03,390.09,Unlimited,SBD,M,
Boys,67.13,6,Tristan Dominic,Woodsboro,65.14,142.88,68.04,142.88,353.8,Unlimited,SBD,M,
Boys,67.13,DQ,Gilbert Perez,Corpus Christi Tuloso-Midway,65.68,229.06,,,,Unlimited,SBD,M,
Boys,74.84,1,Joaquin Soliz,Corpus Christi Calallen,73.39,238.14,170.1,256.28,664.51,Unlimited,SBD,M,
Boys,74.84,2,Ricardo Rodriguez,Corpus Christi Calallen,73.12,238.14,131.54,240.4,610.08,Unlimited,SBD,M,
Boys,74.84,3,Jaden Cantu,Corpus Christi Calallen,74.75,206.38,163.29,183.7,553.38,Unlimited,SBD,M,
Boys,74.84,4,Larry Saenz,Corpus Christi Calallen,74.66,219.99,138.35,183.7,542.04,Unlimited,SBD,M,
Boys,74.84,5,Alec De Los Santos,Corpus Christi Tuloso-Midway,72.85,201.85,120.2,188.24,510.29,Unlimited,SBD,M,
Boys,74.84,6,Justin Flores,Gregory-Portland,74.66,176.9,117.93,172.37,467.2,Unlimited,SBD,M,
Boys,74.84,7,Joseph Moebius,Gregory-Portland,69.22,165.56,117.93,161.03,444.52,Unlimited,SBD,M,
Boys,74.84,8,Brayden Alexander,Corpus Christi Calallen,72.48,183.7,88.45,165.56,437.72,Unlimited,SBD,M,
Boys,74.84,9,Maddox Hodges,Orange Grove,74.21,154.22,113.4,154.22,421.84,Unlimited,SBD,M,
Boys,74.84,10,Andres Jiminian,Orange Grove,70.76,117.93,90.72,122.47,331.12,Unlimited,SBD,M,
Boys,74.84,11,Gabriel Contreras,Orange Grove,73.66,108.86,65.77,131.54,306.17,Unlimited,SBD,M,
Boys,74.84,DQ,Michael May,Corpus Christi Calallen,73.39,158.76,,,,Unlimited,SBD,M,
Boys,82.1,1,Lucian Medina,Corpus Christi Calallen,78.47,288.03,235.87,278.96,802.86,Unlimited,SBD,M,
Boys,82.1,2,Diego Fuentes,Corpus Christi Calallen,80.29,204.12,165.56,185.97,555.65,Unlimited,SBD,M,
Boys,82.1,3,Ian Phillips,Orange Grove,77.56,206.38,131.54,176.9,514.83,Unlimited,SBD,M,
Boys,82.1,4,Gunnar Gleinig,Gregory-Portland,76.38,192.78,136.08,174.63,503.49,Unlimited,SBD,M,
Boys,82.1,5,Luke Mitchell,Corpus Christi Calallen,82.1,174.63,129.27,183.7,487.61,Unlimited,SBD,M,
Boys,82.1,6,Alec Perez,Corpus Christi Calallen,81.74,170.1,124.74,188.24,483.08,Unlimited,SBD,M,
Boys,82.1,7,Cohen McQuarrie,Orange Grove,80.2,176.9,113.4,188.24,478.54,Unlimited,SBD,M,
Boys,82.1,8,Trevor Roach,Corpus Christi Calallen,81.1,156.49,104.33,183.7,444.52,Unlimited,SBD,M,
Boys,82.1,9,Waylon Johnson,Corpus Christi Calallen,79.38,149.69,122.47,142.88,415.04,Unlimited,SBD,M,
Boys,82.1,DQ,Caiden Payne,Corpus Christi Calallen,79.02,,,,,Unlimited,SBD,M,
Boys,89.81,1,Tayden Grimes,Woodsboro,87.54,292.57,167.83,251.74,712.14,Unlimited,SBD,M,
Boys,89.81,2,Tristian Luna,Corpus Christi Calallen,88.9,235.87,131.54,242.67,610.08,Unlimited,SBD,M,
Boys,89.81,3,Kelten Weber,Corpus Christi Calallen,88,224.53,147.42,210.92,582.87,Unlimited,SBD,M,
Boys,89.81,4,Ryan Arredondo,Gregory-Portland,83.01,226.8,115.67,208.65,551.11,Unlimited,SBD,M,
Boys,89.81,5,Gavyn Favela,Corpus Christi Tuloso-Midway,83.78,183.7,136.08,188.24,508.02,Unlimited,SBD,M,
Boys,89.81,6,Josiah Carrillo,Corpus Christi Tuloso-Midway,83.91,183.7,115.67,183.7,483.08,Unlimited,SBD,M,
Boys,89.81,7,Hagan Fuller,Gregory-Portland,85.73,192.78,111.13,167.83,471.74,Unlimited,SBD,M,
Boys,99.79,1,Marcos Acosta,Corpus Christi Calallen,99.7,256.28,192.78,247.21,696.26,Unlimited,SBD,M,
Boys,99.79,2,Jordan Garcia,Corpus Christi Calallen,97.7,260.82,192.78,215.46,669.05,Unlimited,SBD,M,
Boys,99.79,3,Richard Rubio,Corpus Christi Calallen,99.7,242.67,190.51,215.46,648.64,Unlimited,SBD,M,
Boys,99.79,4,Gabriel Trujillo,Gregory-Portland,98.16,244.94,158.76,199.58,603.28,Unlimited,SBD,M,
Boys,99.79,5,Emmanuel Martinez,Corpus Christi Calallen,98.61,222.26,142.88,201.85,566.99,Unlimited,SBD,M,
Boys,99.79,6,Austin Nguyen,Gregory-Portland,94.62,204.12,124.74,215.46,544.31,Unlimited,SBD,M,
Boys,99.79,7,Lucas Brown,Corpus Christi Calallen,95.25,183.7,115.67,188.24,487.61,Unlimited,SBD,M,
Boys,99.79,8,Levi Gallup,Corpus Christi Calallen,97.25,170.1,129.27,176.9,476.27,Unlimited,SBD,M,
Boys,99.79,9,Ryan Gonzalez,Orange Grove,97.34,154.22,97.52,156.49,408.23,Unlimited,SBD,M,
Boys,109.77,1,Fabian Saenz,Corpus Christi Calallen,108.32,278.96,170.1,240.4,689.46,Unlimited,SBD,M,
Boys,109.77,2,Seth Barnes,Orange Grove,109.77,238.14,204.12,222.26,664.51,Unlimited,SBD,M,
Boys,109.77,3,Jace Brandt,Orange Grove,102.42,233.6,183.7,208.65,625.96,Unlimited,SBD,M,
Boys,109.77,4,Tyler Bergman,Gregory-Portland,108.14,249.48,158.76,204.12,612.35,Unlimited,SBD,M,
Boys,109.77,5,Lane Rogers,Corpus Christi Calallen,105.69,217.72,154.22,208.65,580.6,Unlimited,SBD,M,
Boys,109.77,6,Jacob Shephard,Corpus Christi Calallen,108.86,210.92,124.74,195.04,530.7,Unlimited,SBD,M,
Boys,124.74,1,Aiden Hinojosa,Corpus Christi Calallen,116.66,376.48,288.03,288.03,952.54,Unlimited,SBD,M,
Boys,124.74,2,Jose-Daniel Flores,Corpus Christi Tuloso-Midway,111.4,274.42,163.29,219.99,657.71,Unlimited,SBD,M,
Boys,124.74,3,George Garcia,Corpus Christi Tuloso-Midway,118.75,238.14,165.56,249.48,653.17,Unlimited,SBD,M,
Boys,139.71,1,Arnold Munoz,Corpus Christi Calallen,128.82,249.48,165.56,219.99,635.03,Unlimited,SBD,M,
Boys,139.71,2,Adam Alvarez,Corpus Christi Tuloso-Midway,138.25,260.82,142.88,217.72,621.42,Unlimited,SBD,M,
Boys,139.71,3,Brady Buchanan,Corpus Christi Calallen,136.08,224.53,172.37,208.65,605.55,Unlimited,SBD,M,
Boys,139.71,4,Andrew Evans,Gregory-Portland,131.9,226.8,145.15,210.92,582.87,Unlimited,SBD,M,
Boys,139.71,5,Mason Castillo,Orange Grove,137.44,235.87,120.2,190.51,546.58,Unlimited,SBD,M,
Boys,139.71+,1,Carson Sifuentes,Corpus Christi Calallen,155.13,249.48,195.04,204.12,648.64,Unlimited,SBD,M,
