Division,WeightClassKg,Place,Name,Team,BodyweightKg,Best3SquatKg,Best3BenchKg,Best3DeadliftKg,TotalKg,Equipment,Event,Sex,BirthDate
Girls,47.85,1,Anna Scarborough,College Station,47.49,138.35,72.57,115.67,326.59,Unlimited,SBD,F,
Girls,56.02,1,Daisy Torres,College Station A&M Cons,55.79,99.79,45.36,102.06,247.21,Unlimited,SBD,F,
Girls,56.02,2,Mar Rodriguez,Robinson,55.7,74.84,43.09,90.72,208.65,Unlimited,SBD,F,
Girls,56.02,DQ,Naomi Bonaiti,College Station A&M Cons,54.43,,,,,Unlimited,SBD,F,
Girls,60.1,1,Kylie Kramer,College Station,59.87,131.54,56.7,117.93,306.17,Unlimited,SBD,F,
Girls,60.1,2,Hayoung Lee,College Station A&M Cons,59.87,124.74,56.7,124.74,306.17,Unlimited,SBD,F,
Girls,60.1,3,Rashid Taseia,College Station A&M Cons,59.87,102.06,54.43,54.43,210.92,Unlimited,SBD,F,
Girls,60.1,4,Rebeka Falcon,Robinson,59.87,83.91,52.16,52.16,188.24,Unlimited,SBD,F,
Girls,60.1,5,Miriam Demlow,College Station,56.97,81.65,40.82,40.82,163.29,Unlimited,SBD,F,
Girls,60.1,6,Bailey Bazan,College Station A&M Cons,59.42,83.91,36.29,36.29,156.49,Unlimited,SBD,F,
Girls,60.1,7,Kaitlyn Mahder,Robinson,57.2,79.38,34.02,34.02,147.42,Unlimited,SBD,F,
Girls,60.1,8,Abigale Hawkins,College Station A&M Cons,58.06,70.31,34.02,34.02,138.35,Unlimited,SBD,F,
Girls,67.36,1,Addie Pfeiffer,College Station A&M Cons,65.32,113.4,61.23,111.13,285.76,Unlimited,SBD,F,
Girls,67.36,2,Amy Delgado,Robinson,63.55,102.06,52.16,129.27,283.5,Unlimited,SBD,F,
Girls,67.36,3,Sarahi Xic Ajpacaja,College Station A&M Cons,63.05,115.67,49.9,104.33,269.89,Unlimited,SBD,F,
Girls,67.36,4,Giovanna Castellani,College Station,62.32,111.13,52.16,102.06,265.35,Unlimited,SBD,F,
Girls,67.36,DQ,Lilly Torres,College Station A&M Cons,61.23,,,,,Unlimited,SBD,F,
Girls,67.36,DQ,Kaitlynn Mendez,Robinson,61.96,,,,,Unlimited,SBD,F,
Girls,75.07,1,Ashley Harris,College Station,68.95,111.13,56.7,106.59,274.42,Unlimited,SBD,F,
Girls,75.07,2,Breanna Woytek,College Station A&M Cons,68.99,102.06,49.9,90.72,242.67,Unlimited,SBD,F,
Girls,75.07,DQ,Holly Racicot,College Station A&M Cons,74.84,,,,,Unlimited,SBD,F,
Girls,82.33,1,Joy Jones,College Station A&M Cons,82.1,158.76,65.77,124.74,349.27,Unlimited,SBD,F,
Girls,82.33,2,Jackelyn Avila,College Station,79.88,117.93,63.5,102.06,283.5,Unlimited,SBD,F,
Girls,82.33,DQ,Giselle Gonzales,College Station A&M Cons,78.47,,,,,Unlimited,SBD,F,
Girls,90.04,1,Mckayla Molchak,College Station A&M Cons,89.36,163.29,68.04,136.08,367.41,Unlimited,SBD,F,
Girls,90.04,2,Tara Hines,College Station A&M Cons,89.81,120.2,72.57,115.67,308.44,Unlimited,SBD,F,
Girls,90.04,3,Lillian Mayfield,Robinson,87.32,102.06,70.31,122.47,294.84,Unlimited,SBD,F,
Girls,90.04,4,Avery Alexander,Robinson,89.31,81.65,43.09,92.99,217.72,Unlimited,SBD,F,
Girls,100.02,1,Madelyn Jones,College Station A&M Cons,95.71,147.42,61.23,117.93,326.59,Unlimited,SBD,F,
Girls,100.02,2,Kim Rodriguez,College Station A&M Cons,95.25,120.2,54.43,117.93,292.57,Unlimited,SBD,F,
Girls,100.02,3,Adrionna Wimberly,Robinson,90.85,90.72,52.16,99.79,242.67,Unlimited,SBD,F,
