Place,Name,Sex,Event,Division,WeightClassKg,Equipment,BirthYear,Team,Country,State,BodyweightKg,Squat1Kg,Squat2Kg,Squat3Kg,Best3SquatKg,Bench1Kg,Bench2Kg,Bench3Kg,Best3BenchKg,Deadlift1Kg,Deadlift2Kg,Deadlift3Kg,Best3DeadliftKg,TotalKg,Age,BirthDate
G,Mckinzley Thomason,F,SBD,F-G,56,Single-ply,2006,,USA,LA,55.2,140,155,172.5,172.5,50,87.5,100,100,140,150,160,160,432.5,,
G,Lola Williams,F,SBD,F-G,56,Single-ply,2007,Kyle Lehman,USA,TX,55.6,125,-135,135,135,-57.5,-60,60,60,120,130,-137.5,130,325,,
G,Adalyn LaCaze,F,SBD,F-G,90,Single-ply,2007,949 Academy,USA,LA,87.2,95,105,-110,105,-60,60,-67.5,60,85,-97.5,-107.5,85,250,,
G,Leila Gomez,F,SBD,F-G,67.5,Single-ply,2007,,USA,TX,65.65,142.5,152.5,162.5,162.5,47.5,55,62.5,62.5,127.5,140,150,150,375,,
1,Parker Maizels,F,SBD,F-JV,48,Single-ply,2008,,USA,MD,45.8,70,77.5,-80,77.5,30,37.5,-40,37.5,90,-100,-100,90,205,,
1,Isabella Rodriguez,F,SBD,F-JV,56,Single-ply,2008,,USA,WI,53.4,60,-72.5,72.5,72.5,35,45,-50,45,115,-127.5,,115,232.5,,
1,Mollie Bailey,F,SBD,F-JV,100+,Single-ply,2007,,USA,LA,118.1,160,177.5,190,190,85,92.5,95,95,147.5,160,170,170,455,,
2,Mackenzie Orr,F,SBD,F-JV,100+,Single-ply,2008,,USA,LA,109.9,125,140,-150,140,57.5,62.5,-67.5,62.5,-117.5,125,-135,125,327.5,,
1,Rylee Gabriel,F,SBD,F-JV,67.5,Single-ply,2009,,USA,WI,65.1,-115,115,125,125,52.5,62.5,-65,62.5,115,-120,-120,115,302.5,,
1,Emma Lazarus,F,SBD,F-V,48,Single-ply,2006,949 Academy,USA,LA,46.9,120,127.5,135,135,52.5,57.5,60,60,125,-135,135,135,330,,
2,J'Lynn Fernandez,F,SBD,F-V,48,Single-ply,2007,,USA,TX,46.8,110,117.5,-125,117.5,35,42.5,-52.5,42.5,120,130,-135,130,290,,
1,Brianna Ankerson,F,SBD,F-V,52,Single-ply,2007,Neenah Powerlifting,USA,WI,51.4,110,115,117.5,117.5,50,52.5,55,55,115,120,122.5,122.5,295,,
2,Endly Chism,F,SBD,F-V,52,Single-ply,2006,949 Academy,USA,LA,50.6,120,127.5,-135,127.5,57.5,-62.5,-62.5,57.5,92.5,-102.5,-107.5,92.5,277.5,,
3,Kharisma Johnson,F,SBD,F-V,52,Single-ply,2006,,USA,TX,50.85,97.5,-112.5,-112.5,97.5,40,45,-47.5,45,107.5,120,-125,120,262.5,,
1,Breanne Jones,F,SBD,F-V,56,Single-ply,2006,949 Academy,USA,LA,54.75,120,132.5,-137.5,132.5,67.5,72.5,-77.5,72.5,132.5,145,150,150,355,,
2,Ashley Anderson,F,SBD,F-V,56,Single-ply,2007,,USA,TX,52.2,115,-137.5,-137.5,115,-62.5,62.5,65,65,70,92.5,-105,92.5,272.5,,
1,Jaylen Dehoyos,F,SBD,F-V,60,Single-ply,2004,,USA,TX,56.05,160,167.5,-172.5,167.5,55,60,67.5,67.5,157.5,165,170,170,405,,
2,Calista Kumm,F,SBD,F-V,60,Single-ply,2005,,USA,NE,57.7,145,150,-155,150,70,72.5,75,75,147.5,160,165,165,390,,
3,Raeghann Behrens,F,SBD,F-V,60,Single-ply,2005,,USA,NE,58.35,110,120,130,130,62.5,70,-72.5,70,132.5,142.5,152.5,152.5,352.5,,
4,Ariel Villa,F,SBD,F-V,60,Single-ply,2007,Delcambre Powerlifting,USA,LA,57,92.5,102.5,107.5,107.5,-40,40,45,45,100,110,120,120,272.5,,
1,Sara Vasquez,F,SBD,F-V,75,Single-ply,2006,,USA,TX,73.1,172.5,-175,175,175,-60,60,65,65,120,-130,-130,120,360,,
2,Ava Meyer,F,SBD,F-V,75,Single-ply,2006,Neenah Powerlifting,USA,WI,72.65,142.5,-152.5,-152.5,142.5,55,60,65,65,142.5,-150,-152.5,142.5,350,,
3,Aybri Picard,F,SBD,F-V,75,Single-ply,2008,,USA,LA,74.45,125,-127.5,127.5,127.5,65,70,75,75,135,142.5,-157.5,142.5,345,,
1,Allysun Tays,F,SBD,F-V,90,Single-ply,2007,Falls County Elite,USA,TX,89.9,145,-152.5,152.5,152.5,65,-70,-70,65,125,130,150,150,367.5,,
2,Savannah Marvin,F,SBD,F-V,90,Single-ply,2007,,USA,WI,87.2,112.5,117.5,130,130,-55,55,-65,55,125,-137.5,137.5,137.5,322.5,,
1,Crystal Martinez,F,SBD,F-V,100,Single-ply,2005,Kyle Lehman,USA,TX,99.7,215,220,-230,220,67.5,-75,75,75,170,182.5,200,200,495,,
2,Mireya Roberson,F,SBD,F-V,100,Single-ply,2006,949 Academy,USA,LA,97.9,165,175,-185,175,75,85,92.5,92.5,140,157.5,172.5,172.5,440,,
3,Jaymi Patterson,F,SBD,F-V,100,Single-ply,2005,Falls County Elite,USA,TX,96.2,-125,125,132.5,132.5,72.5,75,80,80,125,130,132.5,132.5,345,,
4,Kaitlyn Duplantis,F,SBD,F-V,100,Single-ply,2007,Delcambre Powerlifting,USA,LA,90.3,107.5,115,125,125,57.5,65,70,70,107.5,120,-130,120,315,,
1,Cambria Holmes,F,SBD,F-V,100+,Single-ply,2006,,USA,LA,103.2,205,237.5,242.5,242.5,97.5,-102.5,-105,97.5,145,150,152.5,152.5,492.5,,
2,Anaiah Johnson,F,SBD,F-V,100+,Single-ply,2006,,USA,LA,136.8,200,-227.5,-227.5,200,75,90,-95,90,125,145,-147.5,145,435,,
3,Leah Sanchez,F,SBD,F-V,100+,Single-ply,2007,,USA,TX,108.6,147.5,155,-165,155,70,82.5,-87.5,82.5,-165,-165,165,165,402.5,,
4,Stormy Watson,F,SBD,F-V,100+,Single-ply,2005,,USA,LA,131.3,122.5,142.5,152.5,152.5,75,82.5,-92.5,82.5,125,-145,-145,125,360,,
1,Tara Wenzel,F,SBD,F-V,67.5,Single-ply,2007,,USA,WI,65.9,-155,155,162.5,162.5,65,67.5,72.5,72.5,150,-157.5,157.5,157.5,392.5,,
2,Mia Albritton,F,SBD,F-V,67.5,Single-ply,2006,,USA,LA,63.2,142.5,152.5,-157.5,152.5,65,72.5,77.5,77.5,147.5,160,-170,160,390,,
3,Aaliyah Resress,F,SBD,F-V,67.5,Single-ply,2006,Kyle Lehman,USA,TX,64.7,147.5,160,167.5,167.5,52.5,60,-62.5,60,147.5,160,-170,160,387.5,,
4,Jocelyne Jaimes,F,SBD,F-V,67.5,Single-ply,2008,Kyle Lehman,USA,TX,65.6,-147.5,147.5,-157.5,147.5,55,60,-65,60,120,130,-140,130,337.5,,
5,Kiwi Barr,F,SBD,F-V,67.5,Single-ply,2007,,USA,WI,63.5,112.5,120,-125,120,50,55,-57.5,55,105,112.5,-115,112.5,287.5,,
6,Scarlett McCoy,F,SBD,F-V,67.5,Single-ply,2008,,USA,TX,66.2,82.5,102.5,-110,102.5,40,-47.5,47.5,47.5,102.5,125,-142.5,125,275,,
7,Elizabeth Duron,F,SBD,F-V,67.5,Single-ply,2006,,USA,TX,67.5,67.5,82.5,-112.5,82.5,30,35,37.5,37.5,77.5,92.5,107.5,107.5,227.5,,
DQ,Cora Epping,F,SBD,FR-G,60,Raw,2009,,USA,WI,59.25,-92.5,-102.5,-102.5,,37.5,42.5,-45,42.5,105,110,-112.5,110,,,
G,Haley Mae Plaisance,F,SBD,FR-G,82.5,Raw,2008,Cajun Prep,USA,LA,78,102.5,112.5,120,120,47.5,55,60,60,102.5,112.5,120,120,300,,
1,Cabella Fjestad,F,SBD,FR-JV,48,Raw,2009,,USA,SC,46,80,87.5,92.5,92.5,40,42.5,-45,42.5,87.5,95,-100,95,230,,
2,Addisyn Lege,F,SBD,FR-JV,48,Raw,2009,Cajun Prep,USA,LA,46.6,47.5,55,60,60,25,27.5,30,30,67.5,75,80,80,170,,
1,Brooke Svihovec,F,SBD,FR-JV,52,Raw,2008,Elk Mound High School Powerlifting,USA,WI,51.3,77.5,82.5,87.5,87.5,37.5,40,-42.5,40,97.5,102.5,107.5,107.5,235,,
2,Reese Caffery,F,SBD,FR-JV,52,Raw,2007,,USA,NJ,51.1,-80,80,85,85,35,42.5,-47.5,42.5,-95,97.5,105,105,232.5,,
3,Kylie Gunkel,F,SBD,FR-JV,52,Raw,2008,Waterford Union High School Powerlifting,USA,WI,50.6,82.5,-87.5,-87.5,82.5,45,-47.5,47.5,47.5,90,95,100,100,230,,
4,Abbigale McClellan,F,SBD,FR-JV,52,Raw,2008,,USA,MI,50.6,55,60,67.5,67.5,40,42.5,-47.5,42.5,82.5,92.5,-100,92.5,202.5,,
1,Arden Hyatt,F,SBD,FR-JV,56,Raw,2008,,USA,WI,54.2,92.5,-95,95,95,47.5,50,52.5,52.5,117.5,125,-132.5,125,272.5,,
2,Olivia Fleetwood,F,SBD,FR-JV,56,Raw,2009,,USA,GA,54.2,90,100,110,110,45,50,-52.5,50,97.5,110,-120,110,270,,
3,Phoebe Pederson,F,SBD,FR-JV,56,Raw,2009,,USA,WI,55.15,85,90,92.5,92.5,47.5,50,-52.5,50,110,120,-130,120,262.5,,
4,Bailey LeRoy,F,SBD,FR-JV,56,Raw,2009,,USA,WI,52.7,87.5,90,95,95,40,42.5,-45,42.5,102.5,105,110,110,247.5,,
5,Addison Stroh,F,SBD,FR-JV,56,Raw,2008,Elk Mound High School Powerlifting,USA,WI,55.4,60,-65,-65,60,-35,35,-37.5,35,92.5,-97.5,-97.5,92.5,187.5,,
6,Celia Oberle,F,SBD,FR-JV,56,Raw,2008,Wausaukee Rangers,USA,WI,54.8,47.5,-52.5,55,55,-35,37.5,-45,37.5,80,87.5,-97.5,87.5,180,,
1,Jaden Corpuz,F,SBD,FR-JV,60,Raw,2008,,USA,NC,57.7,110,115,-120,115,42.5,47.5,50,50,125,127.5,-130,127.5,292.5,,
2,Lucy Braund,F,SBD,FR-JV,60,Raw,2008,,USA,WI,58.5,-95,95,-102.5,95,55,-57.5,-57.5,55,130,-137.5,-137.5,130,280,,
3,Olyvia Roscoe,F,SBD,FR-JV,60,Raw,2009,,USA,WY,57.35,100,107.5,110,110,45,50,52.5,52.5,97.5,107.5,-117.5,107.5,270,,
4,Makinly Alphonso,F,SBD,FR-JV,60,Raw,2008,,USA,LA,59.2,67.5,77.5,85,85,35,40,45,45,85,95,100,100,230,,
1,Dejenae Miller,F,SBD,FR-JV,75,Raw,2007,,USA,MA,69.9,95,105,112.5,112.5,-50,52.5,55,55,130,137.5,150,150,317.5,,
2,Blakely Andrews,F,SBD,FR-JV,75,Raw,2008,,USA,SC,71.1,-115,115,120,120,50,55,60,60,120,127.5,137.5,137.5,317.5,,
3,Mya Hengstebeck,F,SBD,FR-JV,75,Raw,2008,Troy Athens High School,USA,MI,72.2,95,-102.5,105,105,50,52.5,-55,52.5,132.5,-142.5,-147.5,132.5,290,,
1,Claire Schmidt,F,SBD,FR-JV,90,Raw,2008,,USA,WI,87,117.5,130,137.5,137.5,57.5,65,-67.5,65,115,-125,-125,115,317.5,,
2,Kyleigh Randall,F,SBD,FR-JV,90,Raw,2007,Goodrich Power Lifting,USA,MI,88.4,-120,-120,120,120,52.5,57.5,-62.5,57.5,120,130,-135,130,307.5,,
3,Mae Boyles,F,SBD,FR-JV,90,Raw,2009,,USA,WI,87.8,107.5,-115,117.5,117.5,52.5,-57.5,-57.5,52.5,115,-122.5,-122.5,115,285,,
4,Lena Smith,F,SBD,FR-JV,90,Raw,2008,,USA,WI,89.9,92.5,102.5,-105,102.5,37.5,42.5,-47.5,42.5,117.5,127.5,132.5,132.5,277.5,,
5,Lilah Konkle,F,SBD,FR-JV,90,Raw,2008,Goodrich Power Lifting,USA,MI,83.2,-102.5,102.5,-112.5,102.5,42.5,-50,-50,42.5,120,127.5,130,130,275,,
6,Maia Halvorson,F,SBD,FR-JV,90,Raw,2009,,USA,MN,89.2,82.5,87.5,92.5,92.5,52.5,55,57.5,57.5,110,117.5,125,125,275,,
7,Gretchen Holm,F,SBD,FR-JV,90,Raw,2008,,USA,MN,88.2,80,85,-90,85,55,60,62.5,62.5,102.5,110,-117.5,110,257.5,,
DQ,Klairissa Edenburn,F,SBD,FR-JV,90,Raw,2009,,USA,MI,88.7,-147.5,-147.5,-147.5,,62.5,67.5,-72.5,67.5,-142.5,142.5,-147.5,142.5,,,
1,Jenna Bjorge,F,SBD,FR-JV,100,Raw,2007,Waterford Union High School Powerlifting,USA,WI,96.2,-135,135,147.5,147.5,67.5,72.5,-75,72.5,147.5,152.5,165,165,385,,
2,Cadence Gibson,F,SBD,FR-JV,100,Raw,2008,,USA,MO,97,-125,130,-132.5,130,52.5,57.5,60,60,152.5,155,-167.5,155,345,,
3,Averie Hernandez,F,SBD,FR-JV,100,Raw,2009,,USA,WI,96.2,-102.5,-102.5,102.5,102.5,52.5,-57.5,-57.5,52.5,107.5,117.5,120,120,275,,
4,Ava Livings,F,SBD,FR-JV,100,Raw,2007,Cajun Prep,USA,LA,90.45,87.5,97.5,105,105,42.5,47.5,52.5,52.5,100,107.5,115,115,272.5,,
1,Katie Audorff,F,SBD,FR-JV,100+,Raw,2008,Elk Mound High School Powerlifting,USA,WI,143,75,80,87.5,87.5,-65,65,67.5,67.5,120,130,-140,130,285,,
2,Annika Ehmcke,F,SBD,FR-JV,100+,Raw,2008,Wausaukee Rangers,USA,WI,112.9,-97.5,97.5,105,105,50,52.5,55,55,107.5,122.5,-137.5,122.5,282.5,,
1,Anna Baribeau,F,SBD,FR-JV,67.5,Raw,2007,,USA,WI,67.1,-105,-105,105,105,55,60,-62.5,60,112.5,122.5,130,130,295,,
2,Hayley Csepella,F,SBD,FR-JV,67.5,Raw,2008,Waterford Union High School Powerlifting,USA,WI,66,87.5,92.5,97.5,97.5,52.5,55,-57.5,55,127.5,132.5,140,140,292.5,,
3,Julia Martin,F,SBD,FR-JV,67.5,Raw,2007,,USA,WI,63.15,90,97.5,-100,97.5,55,-60,-60,55,125,135,-140,135,287.5,,
4,Emma Mancine,F,SBD,FR-JV,67.5,Raw,2008,,USA,ME,65,90,-97.5,100,100,40,42.5,-45,42.5,115,125,127.5,127.5,270,,
5,Celeste Hallett,F,SBD,FR-JV,67.5,Raw,2008,,USA,MI,65.85,87.5,-97.5,97.5,97.5,45,-55,-55,45,112.5,125,-127.5,125,267.5,,
6,Liddiah Prince,F,SBD,FR-JV,67.5,Raw,2008,,USA,WI,66.6,87.5,-97.5,-97.5,87.5,40,47.5,-50,47.5,110,115,-120,115,250,,
7,Brenna Agen,F,SBD,FR-JV,67.5,Raw,2008,,USA,WI,63.25,82.5,87.5,95,95,40,42.5,47.5,47.5,97.5,102.5,-107.5,102.5,245,,
8,Melissa Mai,F,SBD,FR-JV,67.5,Raw,2007,,USA,LA,63.6,77.5,85,-87.5,85,40,45,-47.5,45,95,105,110,110,240,,
9,Chelsea Thompson,F,SBD,FR-JV,67.5,Raw,2008,,USA,WI,62.45,77.5,-87.5,-87.5,77.5,37.5,42.5,45,45,105,115,-117.5,115,237.5,,
10,Jenna Jo Jensen,F,SBD,FR-JV,67.5,Raw,2008,Joe’s Gym,USA,KS,65.8,77.5,82.5,87.5,87.5,35,37.5,40,40,100,105,110,110,237.5,,
11,Leah Dunlap,F,SBD,FR-JV,67.5,Raw,2008,Wausaukee Rangers,USA,WI,64.35,67.5,-70,-70,67.5,35,-37.5,37.5,37.5,82.5,92.5,100,100,205,,
12,Elisha Kellogg,F,SBD,FR-JV,67.5,Raw,2007,Joe’s Gym,USA,KS,66.25,60,65,-70,65,37.5,40,42.5,42.5,90,95,-97.5,95,202.5,,
13,Hannah Pirk,F,SBD,FR-JV,67.5,Raw,2007,,USA,WI,67.35,60,-70,-70,60,35,37.5,-40,37.5,-80,80,90,90,187.5,,
14,Avery Baumann,F,SBD,FR-JV,67.5,Raw,2007,,USA,WI,60.4,60,-75,-75,60,27.5,30,32.5,32.5,70,75,-90,75,167.5,,
15,Morgan Koxlien,F,SBD,FR-JV,67.5,Raw,2008,,USA,WI,64,52.5,-55,-55,52.5,30,35,-37.5,35,60,65,75,75,162.5,,
1,Alyssa Sagen,F,SBD,FR-JV,82.5,Raw,2008,,USA,WI,79.7,107.5,-110,-110,107.5,57.5,-62.5,-62.5,57.5,125,127.5,130,130,295,,
2,Keaghan Stumbris,F,SBD,FR-JV,82.5,Raw,2007,Wausaukee Rangers,USA,WI,80.85,82.5,90,-95,90,47.5,50,-52.5,50,105,112.5,125,125,265,,
3,Gwendalyn Sawall,F,SBD,FR-JV,82.5,Raw,2007,,USA,WI,76.75,-85,90,-97.5,90,40,-42.5,-42.5,40,90,95,102.5,102.5,232.5,,
4,Addison Allen,F,SBD,FR-JV,82.5,Raw,2009,Cajun Prep,USA,LA,81.6,55,62.5,67.5,67.5,27.5,32.5,-35,32.5,82.5,92.5,97.5,97.5,197.5,,
1,Jasmine Brazeau,F,SBD,FR-V,44,Raw,2007,,USA,MI,43.1,75,82.5,85,85,35,37.5,40,40,95,107.5,112.5,112.5,237.5,,
2,Rylee Ehlke,F,SBD,FR-V,44,Raw,2008,Neenah Powerlifting,USA,WI,43.7,72.5,77.5,80,80,37.5,40,42.5,42.5,105,110,-117.5,110,232.5,,
3,Kianna Nakaoka,F,SBD,FR-V,44,Raw,2006,,USA,CA,43,-65,65,-67.5,65,47.5,-50,-50,47.5,-97.5,97.5,-102.5,97.5,210,,
4,Cali Widiker,F,SBD,FR-V,44,Raw,2009,,USA,WI,42.1,55,62.5,67.5,67.5,35,-40,40,40,72.5,90,-107.5,90,197.5,,
5,Kira Duel,F,SBD,FR-V,44,Raw,2008,,USA,WI,43.3,60,62.5,-65,62.5,27.5,-32.5,-32.5,27.5,67.5,77.5,90,90,180,,
6,Gillian Riley,F,SBD,FR-V,44,Raw,2005,,USA,CT,39.2,50,57.5,-62.5,57.5,32.5,35,-37.5,35,70,80,85,85,177.5,,
7,Heidi Herber,F,SBD,FR-V,44,Raw,2006,,USA,WI,42.6,45,50,-55,50,27.5,30,-35,30,65,-77.5,-77.5,65,145,,
DQ,Alley Voiers,F,SBD,FR-V,44,Raw,2006,,USA,KS,44,82.5,-87.5,-87.5,82.5,-37.5,-37.5,-37.5,,92.5,95,97.5,97.5,,,
1,Alyssa Dickens,F,SBD,FR-V,48,Raw,2006,,USA,TX,47.5,-92.5,92.5,95,95,57.5,60,-62.5,60,115,120,122.5,122.5,277.5,,
2,Kaelin Halstead,F,SBD,FR-V,48,Raw,2006,,USA,WI,47.8,102.5,-107.5,107.5,107.5,42.5,45,-47.5,45,-105,105,-110,105,257.5,,
3,Alondra Arreaga,F,SBD,FR-V,48,Raw,2005,Lexington power Lifting,USA,NE,46.9,80,-85,-87.5,80,37.5,40,-42.5,40,105,115,117.5,117.5,237.5,,
4,Noreen Martin,F,SBD,FR-V,48,Raw,2007,,USA,WI,47.1,60,-67.5,-72.5,60,42.5,45,-47.5,45,112.5,117.5,-127.5,117.5,222.5,,
5,Lanie Mallmann,F,SBD,FR-V,48,Raw,2006,,USA,WI,47,62.5,70,75,75,35,37.5,40,40,90,95,-105,95,210,,
6,Wendy Ruan,F,SBD,FR-V,48,Raw,2005,Boston Latin Powerlifting,USA,MA,47.4,75,80,-85,80,40,42.5,45,45,80,85,-95,85,210,,
7,Amelia Hunt,F,SBD,FR-V,48,Raw,2009,,USA,IN,44.8,67.5,72.5,77.5,77.5,32.5,35,37.5,37.5,70,75,80,80,195,,
8,Lyra Kirouac,F,SBD,FR-V,48,Raw,2009,Boston Latin Powerlifting,USA,MA,46,50,52.5,55,55,25,27.5,-32.5,27.5,75,80,85,85,167.5,,
DQ,Josephina Llanas,F,SBD,FR-V,48,Raw,2008,,USA,TX,48,-75,-75,-75,,27.5,42.5,-45,42.5,97.5,105,-110,105,,,
1,Ava Tiahrt,F,SBD,FR-V,52,Raw,2007,,USA,SD,51.1,-92.5,100,102.5,102.5,47.5,52.5,55,55,110,120,122.5,122.5,280,,
2,Elaina Stimmell,F,SBD,FR-V,52,Raw,2005,,USA,VA,50.5,100,-105,-105,100,35,37.5,-40,37.5,140,-142.5,-142.5,140,277.5,,
3,Annie Dean,F,SBD,FR-V,52,Raw,2005,,USA,WI,51.9,95,100,-105,100,55,60,-62.5,60,107.5,115,-120,115,275,,
4,Katarina Tasich,F,SBD,FR-V,52,Raw,2008,Troy Athens High School,USA,MI,50.6,82.5,87.5,92.5,92.5,45,50,-52.5,50,102.5,110,115,115,257.5,,
5,Madison Camp,F,SBD,FR-V,52,Raw,2005,,USA,IL,51.5,95,100,105,105,40,45,-47.5,45,95,102.5,107.5,107.5,257.5,,
6,Emilee Martinez,F,SBD,FR-V,52,Raw,2006,Lexington power Lifting,USA,NE,51,87.5,-90,-95,87.5,37.5,40,-42.5,40,120,125,-127.5,125,252.5,,
7,Denver Campau,F,SBD,FR-V,52,Raw,2006,,USA,MI,51.3,-85,92.5,95,95,42.5,45,-50,45,85,102.5,107.5,107.5,247.5,,
8,Grace Kidd,F,SBD,FR-V,52,Raw,2006,,USA,LA,51.3,70,80,87.5,87.5,37.5,42.5,47.5,47.5,95,107.5,-125,107.5,242.5,,
9,Lia Rodriguez Taveras,F,SBD,FR-V,52,Raw,2006,,USA,GA,51.2,67.5,72.5,77.5,77.5,40,42.5,45,45,110,-117.5,-122.5,110,232.5,,
10,Marley McQuade,F,SBD,FR-V,52,Raw,2006,Cajun Prep,USA,LA,51.9,75,85,90,90,42.5,47.5,50,50,77.5,85,-92.5,85,225,,
11,Alexis Dakin,F,SBD,FR-V,52,Raw,2009,Boston Latin Powerlifting,USA,MA,51.2,62.5,-67.5,67.5,67.5,40,42.5,45,45,90,97.5,-102.5,97.5,210,,
1,Jessica Haggerty,F,SBD,FR-V,56,Raw,2005,,USA,WI,55.7,137.5,145,150,150,85,90,-92.5,90,130,140,152.5,152.5,392.5,,
2,Mallory Hammond,F,SBD,FR-V,56,Raw,2008,,USA,AL,55.25,122.5,130,-132.5,130,57.5,60,62.5,62.5,137.5,150,-155,150,342.5,,
3,Khandi C Shuford,F,SBD,FR-V,56,Raw,2008,Cajun Prep,USA,LA,54.45,95,105,-112.5,105,55,62.5,67.5,67.5,127.5,137.5,-145,137.5,310,,
4,Keeley Danielczak,F,SBD,FR-V,56,Raw,2005,,USA,WI,54,97.5,-107.5,107.5,107.5,55,-60,60,60,132.5,140,-142.5,140,307.5,,
5,Avery Covitz,F,SBD,FR-V,56,Raw,2007,,USA,MA,52.85,117.5,125,132.5,132.5,-45,45,50,50,107.5,115,120,120,302.5,,
6,Hannah LaGesse,F,SBD,FR-V,56,Raw,2006,,USA,WI,54.35,112.5,120,-125,120,57.5,62.5,-65,62.5,115,-120,-120,115,297.5,,
7,Ahuva Krauss,F,SBD,FR-V,56,Raw,2006,,USA,NJ,52.7,-90,95,-105,95,47.5,55,60,60,115,125,132.5,132.5,287.5,,
8,Sofie Palmkoeck,F,SBD,FR-V,56,Raw,2006,Troy Athens High School,USA,MI,54.75,87.5,90,-97.5,90,55,60,-62.5,60,125,135,-152.5,135,285,,
9,Faith Hernandez,F,SBD,FR-V,56,Raw,2006,,USA,TX,55.75,-87.5,95,-100,95,57.5,62.5,-67.5,62.5,97.5,105,112.5,112.5,270,,
10,Emma Donahue,F,SBD,FR-V,56,Raw,2006,Neenah Powerlifting,USA,WI,54.6,92.5,-100,-100,92.5,37.5,42.5,-45,42.5,120,127.5,-135,127.5,262.5,,
11,Bianca Quinonez,F,SBD,FR-V,56,Raw,2007,Neenah Powerlifting,USA,WI,55.35,87.5,92.5,-97.5,92.5,52.5,55,-57.5,55,105,112.5,115,115,262.5,,
12,Amelia Mehls,F,SBD,FR-V,56,Raw,2006,,USA,WI,55.25,72.5,-77.5,80,80,42.5,45,-47.5,45,-112.5,120,-122.5,120,245,,
13,Abigail Dimmitt,F,SBD,FR-V,56,Raw,2006,,USA,NE,55.35,-82.5,85,-90,85,50,-55,55,55,105,-117.5,-120,105,245,,
14,Evelyn Sagor,F,SBD,FR-V,56,Raw,2006,Roseville Powerlifting,USA,MN,55.55,75,80,-82.5,80,42.5,45,-47.5,45,92.5,100,102.5,102.5,227.5,,
15,Madison Johnson,F,SBD,FR-V,56,Raw,2007,Roseville Powerlifting,USA,MN,55.05,80,85,-90,85,42.5,45,47.5,47.5,85,90,-92.5,90,222.5,,
1,Keira Segura,F,SBD,FR-V,60,Raw,2006,,USA,LA,56.3,130,135,140,140,70,75,77.5,77.5,137.5,152.5,-170,152.5,370,,
2,Kate Lincecum,F,SBD,FR-V,60,Raw,2008,Boston Latin Powerlifting,USA,MA,57.7,117.5,125,130,130,65,67.5,70,70,137.5,-147.5,155,155,355,,
3,Katelyn Doehrmann,F,SBD,FR-V,60,Raw,2006,,USA,WI,56.4,120,-130,130,130,60,65,-67.5,65,140,150,-160,150,345,,
4,Theresa Olive,F,SBD,FR-V,60,Raw,2005,,USA,PA,58.5,115,125,130,130,55,60,-62.5,60,130,137.5,147.5,147.5,337.5,,
5,Lucca Lewis,F,SBD,FR-V,60,Raw,2007,,USA,TX,57.4,110,115,120,120,62.5,67.5,70,70,135,145,-150,145,335,,
6,Charlotte Spigner,F,SBD,FR-V,60,Raw,2007,,USA,VA,58.3,117.5,-125,-130,117.5,67.5,-72.5,-72.5,67.5,140,-150,-152.5,140,325,,
7,Maria Marti,F,SBD,FR-V,60,Raw,2006,,USA,WI,56.9,112.5,-117.5,117.5,117.5,60,65,-67.5,65,120,130,137.5,137.5,320,,
8,Jaiden Schroeder,F,SBD,FR-V,60,Raw,2005,,USA,WI,58.1,110,115,-122.5,115,65,67.5,-70,67.5,122.5,132.5,-137.5,132.5,315,,
9,Nicole Silva,F,SBD,FR-V,60,Raw,2005,,USA,WI,59,105,110,-115,110,55,57.5,-60,57.5,140,-152.5,-152.5,140,307.5,,
10,Aina Nguyen,F,SBD,FR-V,60,Raw,2007,Boston Latin Powerlifting,USA,MA,58.1,107.5,115,120,120,50,52.5,55,55,107.5,117.5,125,125,300,,
11,Serina Yan,F,SBD,FR-V,60,Raw,2007,,USA,TX,59.4,110,115,-125,115,42.5,45,47.5,47.5,127.5,135,-142.5,135,297.5,,
12,Savannah Blocksom,F,SBD,FR-V,60,Raw,2007,Neenah Powerlifting,USA,WI,59.4,80,87.5,-92.5,87.5,52.5,55,-57.5,55,117.5,127.5,135,135,277.5,,
13,Jordyn Heinrich,F,SBD,FR-V,60,Raw,2007,,USA,WI,59,77.5,82.5,90,90,42.5,47.5,-52.5,47.5,132.5,137.5,-140,137.5,275,,
14,Lydia Schaal,F,SBD,FR-V,60,Raw,2007,Wausaukee Rangers,USA,WI,59.2,95,-102.5,-102.5,95,50,52.5,-57.5,52.5,110,115,120,120,267.5,,
15,Ayden Lege,F,SBD,FR-V,60,Raw,2006,,USA,LA,58.8,80,90,-95,90,40,47.5,50,50,102.5,112.5,120,120,260,,
16,Clara Voigt,F,SBD,FR-V,60,Raw,2006,,USA,WI,58.8,87.5,90,92.5,92.5,60,-62.5,-62.5,60,97.5,105,-112.5,105,257.5,,
17,Karalyn Woodford,F,SBD,FR-V,60,Raw,2007,Elk Mound High School Powerlifting,USA,WI,59.2,82.5,87.5,-90,87.5,42.5,45,-47.5,45,115,120,-127.5,120,252.5,,
18,Gabrielle Mills,F,SBD,FR-V,60,Raw,2006,,USA,WI,59.1,77.5,85,-95,85,-37.5,37.5,42.5,42.5,105,115,120,120,247.5,,
19,Sienna Grier,F,SBD,FR-V,60,Raw,2007,,USA,CA,59.2,85,-90,90,90,42.5,47.5,50,50,105,-110,-110,105,245,,
1,Tiferet Milgram,F,SBD,FR-V,75,Raw,2006,,USA,NJ,67.8,135,145,150,150,72.5,80,-85,80,150,162.5,172.5,172.5,402.5,,
2,Clare Harris,F,SBD,FR-V,75,Raw,2006,,USA,KS,70.8,132.5,145,-150,145,72.5,80,82.5,82.5,140,152.5,157.5,157.5,385,,
3,Dayna Bland,F,SBD,FR-V,75,Raw,2005,,USA,NC,73.5,122.5,132.5,137.5,137.5,57.5,62.5,65,65,165,175,182.5,182.5,385,,
4,Maggie McGuire,F,SBD,FR-V,75,Raw,2006,,USA,CT,71.7,140,147.5,-157.5,147.5,72.5,-77.5,-77.5,72.5,140,150,157.5,157.5,377.5,,
5,Zsofia Toth,F,SBD,FR-V,75,Raw,2006,,USA,NJ,73.8,125,135,142.5,142.5,65,70,75,75,150,160,-170,160,377.5,,
6,Elizabeth Detjen,F,SBD,FR-V,75,Raw,2007,,USA,TX,71.6,135,140,-145,140,65,-70,72.5,72.5,142.5,152.5,160,160,372.5,,
7,Madison Swiger,F,SBD,FR-V,75,Raw,2006,,USA,MI,71.7,142.5,147.5,-150,147.5,62.5,65,67.5,67.5,152.5,-160,-160,152.5,367.5,,
8,Anneliese Farner,F,SBD,FR-V,75,Raw,2006,,USA,WI,73,120,130,140,140,77.5,82.5,-87.5,82.5,-127.5,137.5,-147.5,137.5,360,,
9,Nora Andreassen,F,SBD,FR-V,75,Raw,2006,,USA,WA,74.3,117.5,127.5,-137.5,127.5,70,75,82.5,82.5,127.5,137.5,-142.5,137.5,347.5,,
10,Kylie Burch,F,SBD,FR-V,75,Raw,2006,,USA,WI,74.9,125,132.5,-135,132.5,50,-52.5,-52.5,50,137.5,147.5,160,160,342.5,,
11,Brianna Yenter,F,SBD,FR-V,75,Raw,2005,,USA,WI,69.7,110,117.5,-122.5,117.5,62.5,67.5,-70,67.5,140,155,-162.5,155,340,,
12,Jasmine Saiyed,F,SBD,FR-V,75,Raw,2007,,USA,WI,69.8,122.5,-127.5,-127.5,122.5,65,67.5,-70,67.5,140,145,-150,145,335,,
13,Claire Dunneback,F,SBD,FR-V,75,Raw,2006,Troy Athens High School,USA,MI,72.5,120,127.5,-137.5,127.5,80,-82.5,-82.5,80,125,-130,,125,332.5,,
14,Madison Klein,F,SBD,FR-V,75,Raw,2006,,USA,WI,73.2,105,-115,115,115,52.5,57.5,-60,57.5,142.5,155,160,160,332.5,,
15,Mariana Gould,F,SBD,FR-V,75,Raw,2008,Troy Athens High School,USA,MI,72.4,117.5,-122.5,122.5,122.5,60,-65,65,65,135,-140,-140,135,322.5,,
16,Lydia Stowers,F,SBD,FR-V,75,Raw,2006,,USA,WI,73.5,135,140,142.5,142.5,62.5,65,-67.5,65,110,115,-120,115,322.5,,
17,Greta Jambard,F,SBD,FR-V,75,Raw,2007,,USA,CT,68.9,105,110,115,115,65,-72.5,-72.5,65,130,135,137.5,137.5,317.5,,
18,Carlee Olson,F,SBD,FR-V,75,Raw,2007,,USA,WI,74.1,112.5,-117.5,-122.5,112.5,52.5,57.5,-62.5,57.5,122.5,135,-142.5,135,305,,
19,Payton Turczyn,F,SBD,FR-V,75,Raw,2008,,USA,WI,71.9,112.5,117.5,122.5,122.5,52.5,55,57.5,57.5,122.5,-130,-130,122.5,302.5,,
20,Isabella Schleuse,F,SBD,FR-V,75,Raw,2007,,USA,WI,72.5,110,115,117.5,117.5,47.5,-50,-50,47.5,117.5,125,-130,125,290,,
21,Lillian Kotila,F,SBD,FR-V,75,Raw,2007,,USA,MI,74.2,102.5,110,-115,110,52.5,57.5,-60,57.5,-107.5,107.5,120,120,287.5,,
22,Kacie Stamm,F,SBD,FR-V,75,Raw,2007,Neenah Powerlifting,USA,WI,73.4,90,97.5,-100,97.5,52.5,57.5,-60,57.5,-127.5,127.5,-130,127.5,282.5,,
23,Destiny Arredondo,F,SBD,FR-V,75,Raw,2006,Lexington power Lifting,USA,NE,73.9,107.5,-115,-115,107.5,52.5,-57.5,-57.5,52.5,102.5,110,117.5,117.5,277.5,,
24,Alyssa Jayde Brewton,F,SBD,FR-V,75,Raw,2009,,USA,LA,72.3,85,92.5,-100,92.5,47.5,52.5,-57.5,52.5,117.5,-130,130,130,275,,
25,Ava Vu,F,SBD,FR-V,75,Raw,2006,Boston Latin Powerlifting,USA,MA,72.8,105,112.5,-115,112.5,42.5,45,-47.5,45,105,112.5,117.5,117.5,275,,
26,Camrin Robinson,F,SBD,FR-V,75,Raw,2006,Cajun Prep,USA,LA,74.8,90,100,105,105,40,47.5,50,50,95,107.5,117.5,117.5,272.5,,
DQ,Lydia Forney,F,SBD,FR-V,75,Raw,2005,Wausaukee Rangers,USA,WI,73.3,85,90,95,95,52.5,55,-57.5,55,-130,-130,-130,,,,
1,Brylee Batiste,F,SBD,FR-V,90,Raw,2007,Cajun Prep,USA,LA,86.5,175,190,200,200,65,75,-82.5,75,177.5,192.5,195,195,470,,
2,Grace Chatelain,F,SBD,FR-V,90,Raw,2006,,USA,LA,89.7,185,195,-202.5,195,92.5,95,97.5,97.5,160,-175,177.5,177.5,470,,
3,Natasha Cruz,F,SBD,FR-V,90,Raw,2005,,USA,TX,89,167.5,-175,175,175,80,82.5,87.5,87.5,165,172.5,-175,172.5,435,,
4,Danielle Doctor,F,SBD,FR-V,90,Raw,2008,,USA,LA,88.4,127.5,140,152.5,152.5,77.5,85,90,90,152.5,165,172.5,172.5,415,,
5,Myah Wenzel,F,SBD,FR-V,90,Raw,2006,Neenah Powerlifting,USA,WI,85.4,140,147.5,-150,147.5,62.5,65,-67.5,65,165,175,-185,175,387.5,,
6,Chelsey Yang,F,SBD,FR-V,90,Raw,2005,Elk Mound High School Powerlifting,USA,WI,90,152.5,157.5,162.5,162.5,60,65,-67.5,65,137.5,140,-150,140,367.5,,
7,Samantha Jo Waldon,F,SBD,FR-V,90,Raw,2007,,USA,WI,88.5,107.5,110,-117.5,110,62.5,-67.5,-67.5,62.5,132.5,135,145,145,317.5,,
8,Emily Anderson,F,SBD,FR-V,90,Raw,2006,,USA,SD,89.5,122.5,-132.5,-132.5,122.5,50,55,-62.5,55,127.5,140,-145,140,317.5,,
9,Faith Bonse,F,SBD,FR-V,90,Raw,2006,,USA,WI,85.6,120,125,-132.5,125,45,50,-55,50,130,-140,140,140,315,,
10,Faith Bailey,F,SBD,FR-V,90,Raw,2007,,USA,SD,89.6,105,115,-122.5,115,45,50,52.5,52.5,125,135,-142.5,135,302.5,,
11,Keira Nickel,F,SBD,FR-V,90,Raw,2006,Neenah Powerlifting,USA,WI,84.6,97.5,105,-110,105,40,-45,45,45,127.5,135,-140,135,285,,
12,Daphne Peterson,F,SBD,FR-V,90,Raw,2007,,USA,WI,87.7,-132.5,132.5,-137.5,132.5,57.5,62.5,-65,62.5,60,70,-85,70,265,,
13,Lara Elian,F,SBD,FR-V,90,Raw,2006,Troy Athens High School,USA,MI,87.4,-100,100,-110,100,50,-52.5,-52.5,50,100,107.5,112.5,112.5,262.5,,
DQ,Chloe Moore,F,SBD,FR-V,90,Raw,2007,Wausaukee Rangers,USA,WI,88.4,-107.5,-107.5,-107.5,,-60,-60,-60,,-102.5,,,,,,
1,Samantha Davis #1,F,SBD,FR-V,100,Raw,2006,,USA,OH,97.9,-152.5,162.5,172.5,172.5,85,95,100,100,167.5,182.5,-192.5,182.5,455,,
2,Charlee Schroeder,F,SBD,FR-V,100,Raw,2006,,USA,WI,99.3,-145,152.5,160,160,75,82.5,85,85,-152.5,152.5,-155,152.5,397.5,,
3,Gracie Kluemper,F,SBD,FR-V,100,Raw,2006,,USA,KY,94.6,-125,130,137.5,137.5,70,-75,75,75,135,147.5,155,155,367.5,,
4,Aleyna Heffernon,F,SBD,FR-V,100,Raw,2007,,USA,WI,95.3,125,135,140,140,57.5,60,62.5,62.5,145,-162.5,162.5,162.5,365,,
5,Tayler Guidry,F,SBD,FR-V,100,Raw,2005,,USA,LA,98.3,127.5,140,150,150,62.5,70,-75,70,125,137.5,145,145,365,,
6,Teagan Becker,F,SBD,FR-V,100,Raw,2005,,USA,WY,97.9,120,130,137.5,137.5,-67.5,67.5,-75,67.5,140,150,-160,150,355,,
7,Ingrid Holm,F,SBD,FR-V,100,Raw,2006,Roseville Powerlifting,USA,MN,97.2,105,115,122.5,122.5,62.5,67.5,-70,67.5,140,152.5,157.5,157.5,347.5,,
8,Kylie Edinger,F,SBD,FR-V,100,Raw,2007,,USA,WI,99.5,110,117.5,-125,117.5,60,62.5,-67.5,62.5,135,145,-152.5,145,325,,
9,Tiffany Hensley,F,SBD,FR-V,100,Raw,2007,,USA,WI,94,120,132.5,140,140,42.5,45,50,50,130,-140,-140,130,320,,
1,Evelyn Edenburn,F,SBD,FR-V,100+,Raw,2006,Goodrich Power Lifting,USA,MI,106.75,-162.5,162.5,172.5,172.5,70,80,82.5,82.5,170,182.5,-190,182.5,437.5,,
2,Alissa Barthuly,F,SBD,FR-V,100+,Raw,2005,,USA,WI,116.5,152.5,157.5,160,160,67.5,75,77.5,77.5,165,-170,-175,165,402.5,,
3,Daytona Hensley,F,SBD,FR-V,100+,Raw,2007,,USA,WI,116.7,175,-187.5,-187.5,175,67.5,70,-72.5,70,120,127.5,135,135,380,,
4,Jazelle Saffell,F,SBD,FR-V,100+,Raw,2008,,USA,OH,114.5,120,127.5,137.5,137.5,45,52.5,-57.5,52.5,135,150,167.5,167.5,357.5,,
5,Kamryn Hall,F,SBD,FR-V,100+,Raw,2008,,USA,TX,121.3,-130,135,-150,135,67.5,-72.5,-72.5,67.5,130,147.5,-155,147.5,350,,
6,Selah Sedlacek,F,SBD,FR-V,100+,Raw,2007,Roseville Powerlifting,USA,MN,148.35,100,115,-127.5,115,72.5,77.5,82.5,82.5,125,137.5,-145,137.5,335,,
7,Emma Duhon,F,SBD,FR-V,100+,Raw,2008,Cajun Prep,USA,LA,148.65,120,135,,135,50,55,-60,55,-125,125,137.5,137.5,327.5,,
8,Abigail Stefanski,F,SBD,FR-V,100+,Raw,2006,Goodrich Power Lifting,USA,MI,102.6,120,-127.5,-127.5,120,52.5,57.5,-62.5,57.5,120,130,137.5,137.5,315,,
9,Riley Willey,F,SBD,FR-V,100+,Raw,2007,,USA,WI,108.05,115,122.5,-127.5,122.5,42.5,45,-50,45,125,-135,-135,125,292.5,,
10,Aubrey Lehman,F,SBD,FR-V,100+,Raw,2006,,USA,WI,116,80,87.5,97.5,97.5,57.5,-60,62.5,62.5,97.5,105,117.5,117.5,277.5,,
1,Kadence Linhart,F,SBD,FR-V,67.5,Raw,2006,,USA,IA,66.9,132.5,147.5,157.5,157.5,75,82.5,85,85,145,157.5,165,165,407.5,,
2,Stella Tintari,F,SBD,FR-V,67.5,Raw,2006,,USA,IN,66.8,140,150,160,160,80,85,-90,85,140,150,-162.5,150,395,,
3,Abi Kuykendall,F,SBD,FR-V,67.5,Raw,2006,,USA,TX,67.3,132.5,140,147.5,147.5,77.5,80,-85,80,142.5,157.5,167.5,167.5,395,,
4,Samara Lanum,F,SBD,FR-V,67.5,Raw,2007,,USA,CA,66.9,122.5,130,135,135,67.5,72.5,77.5,77.5,160,170,180,180,392.5,,
5,Alexa Frcek,F,SBD,FR-V,67.5,Raw,2006,,USA,CA,66.5,-140,140,145,145,-85,85,90,90,145,152.5,-157.5,152.5,387.5,,
6,Sara Reffit,F,SBD,FR-V,67.5,Raw,2007,,USA,LA,66.1,125,132.5,-137.5,132.5,65,70,-75,70,142.5,147.5,152.5,152.5,355,,
7,Madeline Brooks,F,SBD,FR-V,67.5,Raw,2006,,USA,WI,66.6,112.5,117.5,125,125,-67.5,75,77.5,77.5,147.5,-157.5,-157.5,147.5,350,,
8,Shelby Stricklin,F,SBD,FR-V,67.5,Raw,2006,,USA,WY,64.4,125,137.5,-142.5,137.5,70,75,77.5,77.5,120,132.5,-142.5,132.5,347.5,,
9,Carly Keesler,F,SBD,FR-V,67.5,Raw,2005,Neenah Powerlifting,USA,WI,65.2,117.5,127.5,132.5,132.5,65,-70,70,70,135,142.5,-150,142.5,345,,
10,Myka Ditmore,F,SBD,FR-V,67.5,Raw,2005,,USA,TX,66.3,120,127.5,-135,127.5,65,70,72.5,72.5,137.5,145,-150,145,345,,
11,Madyson Janichek,F,SBD,FR-V,67.5,Raw,2005,Neenah Powerlifting,USA,WI,64.4,115,125,130,130,67.5,70,-72.5,70,132.5,142.5,-150,142.5,342.5,,
12,Greyson Plaski,F,SBD,FR-V,67.5,Raw,2006,,USA,WI,66.4,107.5,115,122.5,122.5,57.5,60,65,65,147.5,155,-160,155,342.5,,
13,Gwen Marso,F,SBD,FR-V,67.5,Raw,2006,,USA,WI,65.4,125,-135,135,135,67.5,70,-75,70,125,132.5,-137.5,132.5,337.5,,
14,Sierra Werger,F,SBD,FR-V,67.5,Raw,2006,Lexington power Lifting,USA,NE,62,115,120,122.5,122.5,57.5,60,-62.5,60,142.5,147.5,150,150,332.5,,
15,Emily Polcaro,F,SBD,FR-V,67.5,Raw,2006,Boston Latin Powerlifting,USA,MA,61.1,120,125,132.5,132.5,50,55,-60,55,125,132.5,140,140,327.5,,
16,Rebecca Slattery,F,SBD,FR-V,67.5,Raw,2007,,USA,CA,63.8,92.5,100,105,105,77.5,82.5,87.5,87.5,110,117.5,120,120,312.5,,
17,Keileigh Doll,F,SBD,FR-V,67.5,Raw,2006,,USA,WI,66.1,102.5,107.5,112.5,112.5,55,57.5,-62.5,57.5,142.5,-152.5,-160,142.5,312.5,,
18,Avery Appledorn,F,SBD,FR-V,67.5,Raw,2005,Troy Athens High School,USA,MI,62.3,110,115,-117.5,115,62.5,-65,-65,62.5,120,130,-140,130,307.5,,
19,Kayla Kurtz,F,SBD,FR-V,67.5,Raw,2007,,USA,WI,66.7,-122.5,122.5,130,130,57.5,-60,60,60,112.5,117.5,-122.5,117.5,307.5,,
20,Heidy Kamh,F,SBD,FR-V,67.5,Raw,2006,,USA,TX,65.9,-95,95,-102.5,95,55,60,-62.5,60,137.5,142.5,147.5,147.5,302.5,,
21,Navy Held,F,SBD,FR-V,67.5,Raw,2005,,USA,WI,67.2,-115,115,120,120,57.5,60,62.5,62.5,-110,112.5,120,120,302.5,,
22,Rayle Ostermeier,F,SBD,FR-V,67.5,Raw,2006,,USA,NE,65.1,110,117.5,-120,117.5,52.5,-57.5,-57.5,52.5,117.5,127.5,-132.5,127.5,297.5,,
23,Brooke Lee,F,SBD,FR-V,67.5,Raw,2005,Troy Athens High School,USA,MI,66.8,97.5,-107.5,107.5,107.5,67.5,70,72.5,72.5,110,117.5,-122.5,117.5,297.5,,
24,Rayne Smyers,F,SBD,FR-V,67.5,Raw,2005,,USA,WI,67.3,92.5,97.5,102.5,102.5,55,57.5,-60,57.5,130,137.5,-140,137.5,297.5,,
25,Grace Braus,F,SBD,FR-V,67.5,Raw,2007,,USA,LA,65.3,95,105,-110,105,40,45,50,50,115,127.5,140,140,295,,
26,Ayla Buth,F,SBD,FR-V,67.5,Raw,2006,,USA,WI,65.35,102.5,110,115,115,57.5,60,62.5,62.5,107.5,117.5,-125,117.5,295,,
27,Berit Gilbertson,F,SBD,FR-V,67.5,Raw,2005,,USA,WI,64.6,102.5,112.5,-122.5,112.5,57.5,62.5,-65,62.5,102.5,117.5,-127.5,117.5,292.5,,
28,Katherine Martinez-Perez,F,SBD,FR-V,67.5,Raw,2006,Lexington power Lifting,USA,NE,66,107.5,115,-117.5,115,47.5,50,-52.5,50,122.5,127.5,-132.5,127.5,292.5,,
29,Alice Gardner,F,SBD,FR-V,67.5,Raw,2008,,USA,WI,66.4,107.5,-115,-115,107.5,57.5,-62.5,-62.5,57.5,125,-132.5,-132.5,125,290,,
30,Katelyn Tran,F,SBD,FR-V,67.5,Raw,2008,Boston Latin Powerlifting,USA,MA,65.3,115,120,-125,120,42.5,-45,45,45,107.5,115,120,120,285,,
31,Emma Dunigan,F,SBD,FR-V,67.5,Raw,2007,,USA,LA,66.35,90,97.5,105,105,42.5,47.5,-52.5,47.5,92.5,102.5,110,110,262.5,,
DQ,Angelica Stefanile,F,SBD,FR-V,67.5,Raw,2007,,USA,NY,66,-125,-125,-125,,-80,-80,-80,,152.5,-155,-155,152.5,,,
DQ,Sarai Martinez,F,SBD,FR-V,67.5,Raw,2005,,USA,TX,67.15,-102.5,-105,-105,,52.5,57.5,-62.5,57.5,112.5,117.5,122.5,122.5,,,
1,Reya Johnson,F,SBD,FR-V,82.5,Raw,2006,Troy Athens High School,USA,MI,76.7,-147.5,147.5,-155,147.5,75,-80,82.5,82.5,160,170,175,175,405,,
2,Leah Warner,F,SBD,FR-V,82.5,Raw,2007,,USA,NC,81.1,-135,137.5,142.5,142.5,87.5,92.5,-95,92.5,-165,167.5,-172.5,167.5,402.5,,
3,Mikayla Koenig,F,SBD,FR-V,82.5,Raw,2006,,USA,WI,81.95,127.5,135,140,140,67.5,72.5,-75,72.5,162.5,175,182.5,182.5,395,,
4,Carson Harwood,F,SBD,FR-V,82.5,Raw,2008,Neenah Powerlifting,USA,WI,79.4,145,155,160,160,67.5,70,-72.5,70,145,155,-162.5,155,385,,
5,Kalani Higa,F,SBD,FR-V,82.5,Raw,2008,,USA,WA,81.1,125,135,142.5,142.5,50,57.5,60,60,150,165,172.5,172.5,375,,
6,Ashley Martinez,F,SBD,FR-V,82.5,Raw,2005,,USA,WI,82.25,122.5,130,-132.5,130,65,70,72.5,72.5,142.5,147.5,-152.5,147.5,350,,
7,Giselle Lara,F,SBD,FR-V,82.5,Raw,2007,,USA,NE,78.4,120,127.5,-135,127.5,60,67.5,-70,67.5,127.5,140,-145,140,335,,
8,Trinity Mook,F,SBD,FR-V,82.5,Raw,2007,,USA,GA,80.5,117.5,120,127.5,127.5,70,-72.5,72.5,72.5,-122.5,-132.5,132.5,132.5,332.5,,
9,Majka Gorka,F,SBD,FR-V,82.5,Raw,2005,,USA,WI,81.75,120,125,130,130,60,-62.5,62.5,62.5,130,137.5,140,140,332.5,,
10,Morgan Iverson,F,SBD,FR-V,82.5,Raw,2006,,USA,WI,75.1,-110,110,-120,110,62.5,-65,-65,62.5,140,150,157.5,157.5,330,,
11,Addison Cegielski,F,SBD,FR-V,82.5,Raw,2006,,USA,WI,81.6,112.5,117.5,120,120,45,47.5,-50,47.5,145,152.5,157.5,157.5,325,,
12,Abby Fontenot,F,SBD,FR-V,82.5,Raw,2006,Cajun Prep,USA,LA,79.8,110,125,-130,125,45,52.5,60,60,117.5,130,137.5,137.5,322.5,,
13,Alexis Joachim,F,SBD,FR-V,82.5,Raw,2006,Elk Mound High School Powerlifting,USA,WI,80.6,117.5,-122.5,125,125,57.5,60,-62.5,60,132.5,135,-145,135,320,,
14,Iris Harlow,F,SBD,FR-V,82.5,Raw,2006,,USA,WI,80.6,107.5,112.5,-117.5,112.5,52.5,57.5,-60,57.5,137.5,145,147.5,147.5,317.5,,
15,Addyson Neumann,F,SBD,FR-V,82.5,Raw,2006,,USA,WI,82.1,92.5,97.5,102.5,102.5,-40,42.5,-45,42.5,127.5,137.5,140,140,285,,
16,Kendal Vette,F,SBD,FR-V,82.5,Raw,2007,,USA,WI,79.95,87.5,-92.5,95,95,67.5,-72.5,-72.5,67.5,92.5,107.5,-115,107.5,270,,
DQ,Dalton Creech #2,M,SBD,M-G,60,Single-ply,2007,949 Academy,USA,LA,59.4,-165,-165,-165,,85,92.5,-102.5,92.5,175,185,-190,185,,,
G,Matthew Moreira,M,SBD,M-G,90,Single-ply,2006,,USA,NY,83.5,230,245,-260,245,125,132.5,137.5,137.5,230,240,-245,240,622.5,,
G,Isaiah Hernandez,M,SBD,M-G,82.5,Single-ply,2008,,USA,TX,77.9,170,185,-192.5,185,-82.5,90,92.5,92.5,165,177.5,185,185,462.5,,
DQ,Mitchell Haugsness,M,SBD,M-G,82.5,Single-ply,2007,,USA,CO,75.1,205,-207.5,-207.5,205,-125,-125,-125,,182.5,190,200,200,,,
1,Dallin Jones,M,SBD,M-JV,52,Single-ply,2009,River Oaks Iron Mustangs,USA,LA,50.4,75,85,97.5,97.5,50,55,62.5,62.5,87.5,100,115,115,275,,
1,Kenton Mercer,M,SBD,M-JV,75,Single-ply,2007,River Oaks Iron Mustangs,USA,LA,74.1,175,-182.5,-182.5,175,70,100,-110,100,165,170,-187.5,170,445,,
1,Trace Thompson,M,SBD,M-JV,90,Single-ply,2007,,USA,LA,89.3,125,132.5,145,145,60,65,70,70,125,137.5,147.5,147.5,362.5,,
1,Corbin Braun,M,SBD,M-JV,100,Single-ply,2007,,USA,LA,97.1,-145,145,162.5,162.5,72.5,77.5,85,85,137.5,152.5,165,165,412.5,,
1,Kolton McMilleon,M,SBD,M-JV,67.5,Single-ply,2009,River Oaks Iron Mustangs,USA,LA,65.8,125,135,-142.5,135,85,92.5,-97.5,92.5,160,167.5,-187.5,167.5,395,,
2,James Poland,M,SBD,M-JV,67.5,Single-ply,2007,River Oaks Iron Mustangs,USA,LA,66.2,135,145,160,160,50,60,65,65,150,165,-187.5,165,390,,
1,Hunter Wright,M,SBD,M-V,52,Single-ply,2006,,USA,LA,51.7,-160,160,-167.5,160,90,-95,95,95,177.5,182.5,185,185,440,,
2,Cade Lazarus,M,SBD,M-V,52,Single-ply,2007,949 Academy,USA,LA,51,115,127.5,137.5,137.5,60,67.5,-75,67.5,120,130,140,140,345,,
1,Sammy Tramonte,M,SBD,M-V,56,Single-ply,2006,,USA,LA,55,152.5,165,172.5,172.5,102.5,110,-115,110,165,180,-192.5,180,462.5,,
2,Evan Cardoza,M,SBD,M-V,56,Single-ply,2007,Neenah Powerlifting,USA,WI,55.2,145,155,-162.5,155,-82.5,-85,85,85,170,180,-190,180,420,,
3,Landyn Romero,M,SBD,M-V,56,Single-ply,2006,Delcambre Powerlifting,USA,LA,55.2,112.5,125,137.5,137.5,65,70,-75,70,132.5,145,150,150,357.5,,
4,Monte Kerr,M,SBD,M-V,56,Single-ply,2006,LB Strength & Fitness,USA,TX,54.2,-120,120,-125,120,-65,-65,65,65,142.5,152.5,-172.5,152.5,337.5,,
1,Taylor Purvis,M,SBD,M-V,60,Single-ply,2006,,USA,LA,58.8,147.5,-155,155,155,100,105,-107.5,105,167.5,180,195,195,455,,
2,Kato Mattair,M,SBD,M-V,60,Single-ply,2006,Falls County Elite,USA,TX,58.5,-152.5,152.5,-160,152.5,-62.5,67.5,-82.5,67.5,162.5,177.5,-185,177.5,397.5,,
1,Danerian Actlis,M,SBD,M-V,75,Single-ply,2006,,USA,LA,74.9,210,-227.5,237.5,237.5,155,172.5,-184,172.5,260,285,301,301,711,,
2,Noah Colvin,M,SBD,M-V,75,Single-ply,2006,949 Academy,USA,LA,74,-175,175,187.5,187.5,115,122.5,-127.5,122.5,180,195,205,205,515,,
3,Cole Binkley,M,SBD,M-V,75,Single-ply,2006,,USA,AR,74.1,195,200,,200,97.5,102.5,107.5,107.5,-192.5,192.5,202.5,202.5,510,,
4,Rustin Morales,M,SBD,M-V,75,Single-ply,2006,,USA,LA,73.8,165,175,-185,175,107.5,-115,115,115,185,195,-205,195,485,,
1,Hunter Goodman,M,SBD,M-V,90,Single-ply,2006,,USA,LA,85.25,205,220,-230,220,130,137.5,142.5,142.5,202.5,215,222.5,222.5,585,,
2,Logan Gaudreau,M,SBD,M-V,90,Single-ply,2007,,USA,CO,89.25,210,215,-227.5,215,127.5,132.5,-135,132.5,205,215,217.5,217.5,565,,
3,Waylon Breithaupt,M,SBD,M-V,90,Single-ply,2007,,USA,LA,89.1,205,215,225,225,110,117.5,122.5,122.5,-205,215,-222.5,215,562.5,,
1,Benjamin Ragas,M,SBD,M-V,100,Single-ply,2006,,USA,LA,98.4,235,237.5,257.5,257.5,135,140,-145,140,245,265,-270,265,662.5,,
2,Daniel Rodriguez #23,M,SBD,M-V,100,Single-ply,2006,Falls County Elite,USA,TX,93.7,237.5,245,-260,245,132.5,145,150,150,235,250,-270,250,645,,
3,Rick Boze,M,SBD,M-V,100,Single-ply,2005,,USA,GA,97.6,-205,215,-222.5,215,150,-160,160,160,230,-247.5,-280,230,605,,
1,Kaleb Bordelon,M,SBD,M-V,110,Single-ply,2005,,USA,LA,108,280,295,310,310,165,175,-182.5,175,260,275,-282.5,275,760,,
2,Weston Bonneau,M,SBD,M-V,110,Single-ply,2006,,USA,TX,108.1,275,-285,285,285,147.5,157.5,167.5,167.5,230,235,-242.5,235,687.5,,
3,Corbyn Oden,M,SBD,M-V,110,Single-ply,2006,LB Strength & Fitness,USA,TX,107.2,247.5,265,-277.5,265,142.5,182.5,-190,182.5,200,-220,-220,200,647.5,,
4,Garrett Cook,M,SBD,M-V,110,Single-ply,2007,Falls County Elite,USA,TX,102.1,205,215,220,220,115,122.5,-130,122.5,215,225,240,240,582.5,,
1,Brendon Tays,M,SBD,M-V,125,Single-ply,2005,Falls County Elite,USA,TX,121.9,215,235,245,245,115,125,-140,125,145,-147.5,-190,145,515,,
1,Anthony John Quillman,M,SBD,M-V,140+,Single-ply,2005,,USA,LA,151.8,280,295,307.5,307.5,170,172.5,175,175,217.5,-240,240,240,722.5,,
1,Nathan Lovemore,M,SBD,M-V,67.5,Single-ply,2006,,USA,LA,66.75,227.5,240,-251,240,147.5,-165,-165,147.5,237.5,-257.5,-257.5,237.5,625,,
2,Gahel Griner,M,SBD,M-V,67.5,Single-ply,2005,,USA,TX,65.6,210,217.5,220,220,110,120,-125,120,215,225,227.5,227.5,567.5,,
3,Nic Jones,M,SBD,M-V,67.5,Single-ply,2005,River Oaks Iron Mustangs,USA,LA,66.7,190,197.5,205,205,137.5,142.5,150,150,200,-210,-212.5,200,555,,
4,Moises Cortez,M,SBD,M-V,67.5,Single-ply,2007,,USA,LA,66.95,180,200,207.5,207.5,110,120,-125,120,195,212.5,-230,212.5,540,,
5,Glenterrius Brown,M,SBD,M-V,67.5,Single-ply,2006,,USA,LA,63.15,-192.5,-192.5,192.5,192.5,97.5,-102.5,102.5,102.5,197.5,210,-215,210,505,,
6,Lincoln Johnson,M,SBD,M-V,67.5,Single-ply,2006,,USA,LA,66.5,152.5,160,-170,160,82.5,87.5,-92.5,87.5,-195,195,-210,195,442.5,,
7,Liam McHugh,M,SBD,M-V,67.5,Single-ply,2006,River Oaks Iron Mustangs,USA,LA,64.25,112.5,125,137.5,137.5,-60,62.5,72.5,72.5,140,147.5,160,160,370,,
1,Parker Anderson,M,SBD,M-V,82.5,Single-ply,2005,,USA,IL,81.85,240,-250,-257.5,240,145,152.5,-155,152.5,230,-240,-240,230,622.5,,
2,Toby Gorham,M,SBD,M-V,82.5,Single-ply,2005,,USA,LA,80.9,197.5,-220,-230,197.5,135,145,-152.5,145,195,-227.5,-227.5,195,537.5,,
3,Kadyn Bourgeois,M,SBD,M-V,82.5,Single-ply,2006,Delcambre Powerlifting,USA,LA,79.15,175,-192.5,192.5,192.5,115,122.5,125,125,185,195,210,210,527.5,,
4,Landon Haydel,M,SBD,M-V,82.5,Single-ply,2006,,USA,LA,81.4,175,185,192.5,192.5,115,127.5,-137.5,127.5,185,192.5,207.5,207.5,527.5,,
5,Logan Tays,M,SBD,M-V,82.5,Single-ply,2008,Falls County Elite,USA,TX,81.1,165,177.5,190,190,100,107.5,-117.5,107.5,165,177.5,187.5,187.5,485,,
DQ,Cooper Kidwell,M,SBD,M-V,82.5,Single-ply,2006,LB Strength & Fitness,USA,TX,81.05,-210,-210,-210,,,,,,,,,,,,
G,Kaden Books,M,SBD,MR-G,56,Raw,2009,Elk Mound High School Powerlifting,USA,WI,52.8,82.5,87.5,-92.5,87.5,42.5,47.5,-50,47.5,105,112.5,120,120,255,,
DQ,Brendan Hickok,M,SBD,MR-G,56,Raw,2006,,USA,TX,53.9,-120,-120,-120,,-70,-70,-70,,-137.5,-137.5,-137.5,,,,
G,Pedro Linhares,M,SBD,MR-G,60,Raw,2008,Nevada Barbell,USA,IA,59.2,125,132.5,-137.5,132.5,85,90,-97.5,90,165,175,182.5,182.5,405,,
G,Maverick Marciniak,M,SBD,MR-G,60,Raw,2005,,USA,TX,56.05,80,90,100,100,62.5,67.5,-75,67.5,115,-125,-125,115,282.5,,
G,Jacob Houseworth,M,SBD,MR-G,75,Raw,2007,,USA,WY,67.59,142.5,152.5,160,160,80,87.5,90,90,180,190,200,200,450,,
G,Andrew Leedham,M,SBD,MR-G,75,Raw,2008,St. John's Prep Powerlifting,USA,MA,69.8,120,127.5,-135,127.5,97.5,102.5,-110,102.5,155,162.5,-170,162.5,392.5,,
DQ,Noah Willbur,M,SBD,MR-G,75,Raw,2006,,USA,WA,68,142.5,147.5,-150,147.5,87.5,92.5,-100,92.5,-175,-185,-185,,,,
G,Andy Tran #5,M,SBD,MR-G,90,Raw,2005,,USA,MA,88,175,185,-190,185,100,105,107.5,107.5,190,200,207.5,207.5,500,,
G,Reggie Kloehn,M,SBD,MR-G,125,Raw,2006,,USA,WI,117.7,250,272.5,-275,272.5,142.5,150,-157.5,150,240,260,272.5,272.5,695,,
G,Mason Pheifer,M,SBD,MR-G,125,Raw,2007,Hortonville Powerlifting Team,USA,WI,111.45,155,162.5,-167.5,162.5,95,100,102.5,102.5,160,-182.5,-182.5,160,425,,
DQ,Ben Lisowski,M,SBD,MR-G,140+,Raw,2007,,USA,WI,155.3,177.5,-182.5,-182.5,177.5,85,92.5,102.5,102.5,-210,-210,-210,,,,
G,Pierce Woodworth,M,SBD,MR-G,67.5,Raw,2007,,USA,CA,62.15,162.5,177.5,185,185,95,105,-115,105,155,170,182.5,182.5,472.5,,
G,Jaron Melendrez,M,SBD,MR-G,67.5,Raw,2006,,USA,WA,60.4,-140,-140,140,140,75,82.5,-85,82.5,160,170,175,175,397.5,,
DQ,Vedant Ray,M,SBD,MR-G,67.5,Raw,2007,,USA,OH,66.2,-172.5,172.5,-182.5,172.5,-107.5,-112.5,-112.5,,200,210,-227.5,210,,,
1,Alan Abrego,M,SBD,MR-JV,52,Raw,2008,Team Black Powerlifting,USA,OK,50.35,110,-122.5,-122.5,110,52.5,55,62.5,62.5,120,132.5,147.5,147.5,320,,
1,Kody Kott,M,SBD,MR-JV,56,Raw,2007,Troy Athens High School,USA,MI,55.84,110,-120,-120,110,75,-80,-80,75,145,157.5,-165,157.5,342.5,,
2,James Matassa Jr,M,SBD,MR-JV,56,Raw,2008,,USA,LA,55.6,107.5,-115,-120,107.5,70,77.5,80,80,130,145,150,150,337.5,,
3,Beckam Smith,M,SBD,MR-JV,56,Raw,2007,,USA,UT,55.47,105,112.5,-120,112.5,77.5,87.5,-95,87.5,110,115,-125,115,315,,
4,Clay Juenger,M,SBD,MR-JV,56,Raw,2008,,USA,MS,54.39,82.5,92.5,97.5,97.5,-52.5,52.5,57.5,57.5,-120,120,135,135,290,,
1,Joseph Young #4,M,SBD,MR-JV,60,Raw,2007,Troy Athens High School,USA,MI,58.4,110,120,-127.5,120,67.5,72.5,-80,72.5,132.5,142.5,147.5,147.5,340,,
2,Ryan Copelan,M,SBD,MR-JV,60,Raw,2008,,USA,WY,57.64,92.5,100,102.5,102.5,57.5,65,-67.5,65,140,150,155,155,322.5,,
3,Jacob LaGesse,M,SBD,MR-JV,60,Raw,2008,,USA,WI,59.58,-100,102.5,-110,102.5,57.5,-62.5,-62.5,57.5,127.5,135,140,140,300,,
4,Lawton McClellan,M,SBD,MR-JV,60,Raw,2009,,USA,WY,60,77.5,85,87.5,87.5,72.5,77.5,80,80,102.5,110,117.5,117.5,285,,
1,Andre Duval,M,SBD,MR-JV,75,Raw,2008,,USA,NY,73.6,185,195,-205,195,130.5,140.5,143,143,195,212.5,222.5,222.5,560.5,,
2,Finnegan Harper,M,SBD,MR-JV,75,Raw,2007,,USA,NC,73.95,187.5,197.5,205,205,-125,125,-135,125,215,227.5,-235,227.5,557.5,,
3,Samuel Blackwell,M,SBD,MR-JV,75,Raw,2007,,USA,SC,72.25,145,160,172.5,172.5,120,130,-140,130,-190,210,222.5,222.5,525,,
4,Brayden Parker,M,SBD,MR-JV,75,Raw,2007,,USA,AL,74,185,-190,-190,185,115,120,-125,120,215,220,-225,220,525,,
5,Wyatt Dixon,M,SBD,MR-JV,75,Raw,2008,,USA,GA,73.5,175,177.5,187.5,187.5,110,115,-117.5,115,205,215,-220,215,517.5,,
6,Benjamin Bacon,M,SBD,MR-JV,75,Raw,2008,,USA,CO,74.05,182.5,-200,-200,182.5,100,105,110,110,207.5,220,-227.5,220,512.5,,2008-06-12
7,David Satloff,M,SBD,MR-JV,75,Raw,2007,,USA,MD,73.5,160,172.5,180,180,107.5,112.5,115,115,187.5,202.5,215,215,510,,
8,Jonathan Falcon,M,SBD,MR-JV,75,Raw,2009,,USA,LA,73,160,175,182.5,182.5,92.5,97.5,102.5,102.5,195,210,-227.5,210,495,,
9,Jackson Tohill,M,SBD,MR-JV,75,Raw,2007,,USA,TX,74.3,-150,160,165,165,-105,105,107.5,107.5,190,210,222.5,222.5,495,,
10,Armoni Velez,M,SBD,MR-JV,75,Raw,2009,,USA,KS,71.02,162.5,167.5,170,170,102.5,107.5,-112.5,107.5,182.5,190,200,200,477.5,,
11,Caleb Smyers,M,SBD,MR-JV,75,Raw,2007,,USA,WI,74.2,152.5,160,165,165,100,105,-107.5,105,175,,,175,445,,
12,Donato Blasucci,M,SBD,MR-JV,75,Raw,2009,CBA Colts Powerlifting,USA,NJ,74.15,107.5,115,122.5,122.5,65,70,-75,70,135,145,152.5,152.5,345,,
13,Layton Barr,M,SBD,MR-JV,75,Raw,2009,,USA,WI,71.65,110,-120,120,120,67.5,70,-72.5,70,132.5,142.5,-155,142.5,332.5,,
14,Alexander Wenzel,M,SBD,MR-JV,75,Raw,2008,,USA,WI,73,120,-130,-130,120,52.5,-57.5,-57.5,52.5,127.5,137.5,142.5,142.5,315,,
1,Syius Rivera,M,SBD,MR-JV,90,Raw,2008,,USA,MA,87.7,205,-215,-217.5,205,115,125,-127.5,125,237.5,247.5,257.5,257.5,587.5,,
2,Levi Cosgrove,M,SBD,MR-JV,90,Raw,2007,,USA,LA,87.6,195,207.5,222.5,222.5,107.5,115,120,120,215,230,237.5,237.5,580,,
3,Ivan Hernandez,M,SBD,MR-JV,90,Raw,2007,,USA,IL,88.7,162.5,175,182.5,182.5,107.5,115,-120,115,210,227.5,230,230,527.5,,
4,Elijah Burt,M,SBD,MR-JV,90,Raw,2007,Troy Athens High School,USA,MI,86.9,175,182.5,190,190,100,105,-107.5,105,212.5,-227.5,-232.5,212.5,507.5,,
5,Logan Turner,M,SBD,MR-JV,90,Raw,2008,,USA,MS,89.9,167.5,177.5,182.5,182.5,87.5,97.5,100,100,177.5,190,200,200,482.5,,
6,Nicholas Jandrucko,M,SBD,MR-JV,90,Raw,2007,,USA,CT,89.4,-125,135,145,145,115,-122.5,-122.5,115,182.5,195,-207.5,195,455,,
7,Maxwell McQuade,M,SBD,MR-JV,90,Raw,2008,,USA,LA,88.2,110,132.5,142.5,142.5,80,87.5,92.5,92.5,115,137.5,147.5,147.5,382.5,,
8,Maddox Guillory,M,SBD,MR-JV,90,Raw,2008,,USA,LA,89.3,110,125,-132.5,125,65,-72.5,-72.5,65,137.5,150,157.5,157.5,347.5,,
9,Ivon Heinrich,M,SBD,MR-JV,90,Raw,2008,,USA,WI,85.3,-90,90,-100,90,60,65,-70,65,145,150,-152.5,150,305,,
1,Ryan Pejakovich,M,SBD,MR-JV,100,Raw,2008,,USA,MI,97.7,210,235,240,240,140,145,-150,145,225,237.5,-250,237.5,622.5,,
2,Gauge Vanlinn,M,SBD,MR-JV,100,Raw,2007,Hortonville Powerlifting Team,USA,WI,96.4,180,192.5,-205,192.5,125,132.5,-140,132.5,177.5,192.5,200,200,525,,
3,Lincoln Getts,M,SBD,MR-JV,100,Raw,2009,Sparks Strength Club,USA,IN,92.3,170,180,185,185,95,100,107.5,107.5,215,-227.5,227.5,227.5,520,,
4,Grant Lee,M,SBD,MR-JV,100,Raw,2008,,USA,KS,93.1,175,182.5,190,190,87.5,92.5,-97.5,92.5,192.5,202.5,207.5,207.5,490,,
5,Marcos Muniz,M,SBD,MR-JV,100,Raw,2008,,USA,WI,95.8,177.5,-185,185,185,90,97.5,100,100,190,-202.5,205,205,490,,
6,Kingston Hartman,M,SBD,MR-JV,100,Raw,2009,,USA,TX,93,-175,175,-187.5,175,110,120,127.5,127.5,165,172.5,-180,172.5,475,,
7,Payton Froehlig,M,SBD,MR-JV,100,Raw,2008,,USA,WI,94.3,140,150,155,155,95,-102.5,-102.5,95,155,165,170,170,420,,
1,Shepard Stapleton,M,SBD,MR-JV,110,Raw,2008,,USA,SC,107.03,225,240,247.5,247.5,125,135,140,140,215,227.5,235,235,622.5,,
2,Landon Semling,M,SBD,MR-JV,110,Raw,2008,,USA,WI,107.9,227.5,237.5,-245,237.5,145,155,-160,155,215,227.5,-235,227.5,620,,
3,Jackson Penland,M,SBD,MR-JV,110,Raw,2007,,USA,ME,103.35,227.5,240,252.5,252.5,115,122.5,-130,122.5,210,220,227.5,227.5,602.5,,
4,Charles Whelan,M,SBD,MR-JV,110,Raw,2007,,USA,MD,105.05,215,230,237.5,237.5,105,115,122.5,122.5,200,212.5,217.5,217.5,577.5,,
5,Rush Morrison,M,SBD,MR-JV,110,Raw,2008,,USA,ME,107.85,-222.5,222.5,-242.5,222.5,105,-112.5,-115,105,227.5,-237.5,,227.5,555,,
6,Isaiah Reed,M,SBD,MR-JV,110,Raw,2007,,USA,MA,108.04,157.5,167.5,177.5,177.5,95,100,110,110,215,230,247.5,247.5,535,,
7,Nathaniel Hlavka,M,SBD,MR-JV,110,Raw,2007,,USA,WY,103.09,132.5,145,155,155,77.5,-85,87.5,87.5,150,167.5,190,190,432.5,,
8,Carlos García,M,SBD,MR-JV,110,Raw,2007,,USA,TX,108.5,130,140,150,150,77.5,82.5,-85,82.5,180,190,200,200,432.5,,
9,Rhett Jackson-Sears,M,SBD,MR-JV,110,Raw,2009,,USA,TX,107.3,137.5,140,145,145,77.5,80,-87.5,80,150,155,-160,155,380,,
1,John Burrill,M,SBD,MR-JV,125,Raw,2007,,USA,WI,112.2,237.5,245,-252.5,245,112.5,117.5,-122.5,117.5,220,227.5,-240,227.5,590,,
2,Sean McCall,M,SBD,MR-JV,125,Raw,2008,,USA,OH,120.8,182.5,-192.5,197.5,197.5,167.5,175,-183,175,182.5,197.5,205,205,577.5,,
3,Blake Meyer,M,SBD,MR-JV,125,Raw,2008,Hortonville Powerlifting Team,USA,WI,116.2,185,202.5,-210,202.5,105,117.5,122.5,122.5,-202.5,202.5,222.5,222.5,547.5,,
4,William Dinsmoore,M,SBD,MR-JV,125,Raw,2008,,USA,MI,123.6,-207.5,-207.5,207.5,207.5,102.5,110,-120,110,195,207.5,217.5,217.5,535,,
5,Isaac Truax,M,SBD,MR-JV,125,Raw,2008,Sparks Strength Club,USA,IN,123.1,167.5,177.5,182.5,182.5,87.5,90,-92.5,90,190,202.5,-210,202.5,475,,
6,Joseph Morris,M,SBD,MR-JV,125,Raw,2007,,USA,MA,110.6,167.5,-172.5,-175,167.5,92.5,95,97.5,97.5,192.5,197.5,-205,197.5,462.5,,
7,John Candiloro,M,SBD,MR-JV,125,Raw,2008,,USA,MI,120.2,-137.5,137.5,147.5,147.5,70,-80,-80,70,155,170,-195,170,387.5,,
1,Denzil Niven Smith,M,SBD,MR-JV,67.5,Raw,2008,,USA,AR,64.88,182.5,195,-202.5,195,100,105,110,110,192.5,207.5,-215,207.5,512.5,,
2,Sterling Hershey,M,SBD,MR-JV,67.5,Raw,2007,,USA,AL,65.15,155,165,-172.5,165,102.5,-112.5,112.5,112.5,165,175,187.5,187.5,465,,
3,Noah Galvez,M,SBD,MR-JV,67.5,Raw,2008,,USA,CO,65.93,-152.5,160,175,175,90,92.5,95,95,145,160,185,185,455,,
4,Emmett Duggan,M,SBD,MR-JV,67.5,Raw,2009,,USA,CO,66.49,-150,150,162.5,162.5,-92.5,92.5,-95,92.5,190,-197.5,-197.5,190,445,,
5,Ethan Miller,M,SBD,MR-JV,67.5,Raw,2007,Team Black Powerlifting,USA,OK,66.95,-150,155,165,165,60,70,82.5,82.5,177.5,192.5,-195,192.5,440,,
6,Gavin Post,M,SBD,MR-JV,67.5,Raw,2009,,USA,WI,66.08,-150,160,-165,160,75,80,82.5,82.5,177.5,190,-197.5,190,432.5,,
7,Gavin Feuerhammer,M,SBD,MR-JV,67.5,Raw,2008,,USA,WI,65.28,142.5,157.5,-165,157.5,72.5,77.5,-82.5,77.5,180,192.5,195,195,430,,
8,Cole Dougherty,M,SBD,MR-JV,67.5,Raw,2008,CBA Colts Powerlifting,USA,NJ,65.53,145,152.5,157.5,157.5,87.5,-92.5,-92.5,87.5,165,172.5,-177.5,172.5,417.5,,
9,Ethan Sosa,M,SBD,MR-JV,67.5,Raw,2008,,USA,MA,67.3,-147.5,-157.5,157.5,157.5,77.5,85,-92.5,85,160,175,-190,175,417.5,,
10,Trace Bauer,M,SBD,MR-JV,67.5,Raw,2008,,USA,IL,64.72,137.5,-145,150,150,92.5,97.5,-102.5,97.5,152.5,162.5,-172.5,162.5,410,,
11,Connor Reed,M,SBD,MR-JV,67.5,Raw,2007,,USA,NC,66.19,135,-160,-165,135,92.5,97.5,-102.5,97.5,150,162.5,172.5,172.5,405,,
12,Ethan Amundson,M,SBD,MR-JV,67.5,Raw,2008,,USA,WY,63.77,112.5,125,135,135,72.5,77.5,-80,77.5,160,170,175,175,387.5,,
13,Jahir Rodriguez,M,SBD,MR-JV,67.5,Raw,2008,,USA,GA,66.24,130,-135,-140,130,85,87.5,90,90,155,165,-175,165,385,,
14,Ashton Guajardo,M,SBD,MR-JV,67.5,Raw,2008,,USA,WI,65.58,117.5,125,-130,125,75,80,-82.5,80,152.5,160,-170,160,365,,
15,Geyamkhosi Gilliam,M,SBD,MR-JV,67.5,Raw,2008,,USA,WY,66.48,-117.5,117.5,-137.5,117.5,67.5,75,80,80,140,150,162.5,162.5,360,,
16,Derek Dunneback,M,SBD,MR-JV,67.5,Raw,2007,Troy Athens High School,USA,MI,65.67,117.5,-125,125,125,75,80,-85,80,135,145,150,150,355,,
17,Ezra Pederson,M,SBD,MR-JV,67.5,Raw,2007,,USA,WI,66.68,-110,-117.5,117.5,117.5,62.5,65,-70,65,150,165,-182.5,165,347.5,,
18,Wyatt Benson,M,SBD,MR-JV,67.5,Raw,2009,,USA,WI,65.27,105,-115,115,115,67.5,72.5,-75,72.5,145,155,-157.5,155,342.5,,
19,Austin Lessor,M,SBD,MR-JV,67.5,Raw,2009,,USA,TX,64.58,115,120,125,125,65,70,72.5,72.5,130,137.5,140,140,337.5,,
1,Ryder Reiling,M,SBD,MR-JV,82.5,Raw,2008,,USA,CT,80.1,197.5,-207.5,-207.5,197.5,120,-125,130,130,207.5,215,-225,215,542.5,,
2,Benson Long,M,SBD,MR-JV,82.5,Raw,2008,Sparks Strength Club,USA,IN,80.9,160,175,182.5,182.5,100,-107.5,112.5,112.5,185,200,210,210,505,,
3,Caleb Spilker,M,SBD,MR-JV,82.5,Raw,2007,,USA,IL,81.2,170,-182.5,-182.5,170,97.5,105,-107.5,105,-202.5,220,-225,220,495,,
4,Harrison Lazarus,M,SBD,MR-JV,82.5,Raw,2008,,USA,MA,79,165,-172.5,172.5,172.5,110,115,-122.5,115,185,200,205,205,492.5,,
5,Cristopher Cardoza,M,SBD,MR-JV,82.5,Raw,2007,,USA,MA,81.3,-180,180,185,185,95,100,-105,100,185,197.5,205,205,490,,
6,Rowan Eslin,M,SBD,MR-JV,82.5,Raw,2007,,USA,ME,78.2,152.5,-165,-167.5,152.5,110,117.5,125,125,182.5,192.5,200,200,477.5,,
7,Ian Jensen,M,SBD,MR-JV,82.5,Raw,2007,,USA,KS,81.5,165,-170,-172.5,165,77.5,80,82.5,82.5,205,212.5,-220,212.5,460,,
8,Luca Torres,M,SBD,MR-JV,82.5,Raw,2007,,USA,TX,81.8,160,-172.5,182.5,182.5,90,97.5,-102.5,97.5,170,180,-192.5,180,460,,
9,Brodie Chase,M,SBD,MR-JV,82.5,Raw,2008,,USA,MI,79.9,175,-185,185,185,85,-90,-90,85,175,182.5,-187.5,182.5,452.5,,
10,Mason Przybylla,M,SBD,MR-JV,82.5,Raw,2009,,USA,WI,80.1,142.5,147.5,152.5,152.5,95,100,105,105,182.5,187.5,190,190,447.5,,
11,Keegan Fessey,M,SBD,MR-JV,82.5,Raw,2007,,USA,WI,80,147.5,-157.5,-165,147.5,87.5,92.5,95,95,190,200,-205,200,442.5,,
12,AJ Pheifer,M,SBD,MR-JV,82.5,Raw,2008,Hortonville Powerlifting Team,USA,WI,80.3,155,-165,-165,155,110,-112.5,-112.5,110,167.5,-177.5,-177.5,167.5,432.5,,
13,Jackson Sourbeer,M,SBD,MR-JV,82.5,Raw,2008,,USA,TX,79.9,-135,140,-145,140,100,105,107.5,107.5,155,170,182.5,182.5,430,,
14,Antonio Langer,M,SBD,MR-JV,82.5,Raw,2008,Troy Athens High School,USA,MI,75.5,142.5,145,-147.5,145,85,90,95,95,175,180,185,185,425,,
15,Cayden Brunner,M,SBD,MR-JV,82.5,Raw,2008,Elk Mound High School Powerlifting,USA,WI,80.1,155,160,-165,160,-77.5,80,-85,80,160,167.5,172.5,172.5,412.5,,
16,Grant Anderson,M,SBD,MR-JV,82.5,Raw,2007,,USA,SD,81,-130,137.5,-145,137.5,-85,85,-90,85,167.5,177.5,-185,177.5,400,,
17,Ivan Barkley,M,SBD,MR-JV,82.5,Raw,2007,,USA,WY,81.7,120,130,135,135,75,80,87.5,87.5,145,155,157.5,157.5,380,,
18,Thomas Zawisza,M,SBD,MR-JV,82.5,Raw,2009,CBA Colts Powerlifting,USA,NJ,80.2,117.5,127.5,-130,127.5,82.5,90,95,95,140,150,-155,150,372.5,,
1,Indiana Gray,M,SBD,MR-V,52,Raw,2006,,USA,MO,51.3,150,-162.5,162.5,162.5,85,-90,-92.5,85,175,180,192.5,192.5,440,,
2,Anthony Taracena,M,SBD,MR-V,52,Raw,2005,Lexington power Lifting,USA,NE,51.3,125,132.5,135,135,62.5,65,-67.5,65,175,185,-192.5,185,385,,
3,Ethan Andrews,M,SBD,MR-V,52,Raw,2008,Cajun Prep,USA,LA,50.75,107.5,117.5,125,125,60,70,-75,70,125,137.5,147.5,147.5,342.5,,
4,Gavin Boucher,M,SBD,MR-V,52,Raw,2007,,USA,WI,51.3,115,120,-122.5,120,70,75,-77.5,75,140,147.5,-152.5,147.5,342.5,,
5,Aidan Mak,M,SBD,MR-V,52,Raw,2008,Boston Latin Powerlifting,USA,MA,50.25,105,112.5,-117.5,112.5,60,-62.5,-62.5,60,135,140,155,155,327.5,,
6,Emanuel Zuniga-Garcia,M,SBD,MR-V,52,Raw,2007,Lexington power Lifting,USA,NE,51.1,95,100,105,105,57.5,60,65,65,125,130,135,135,305,,
7,Joshua Lor,M,SBD,MR-V,52,Raw,2006,Elk Mound High School Powerlifting,USA,WI,51.6,95,100,-107.5,100,50,55,-57.5,55,117.5,132.5,-142.5,132.5,287.5,,
8,Ashton Wright,M,SBD,MR-V,52,Raw,2007,Cajun Prep,USA,LA,49.2,77.5,87.5,97.5,97.5,55,60,62.5,62.5,115,117.5,-140,117.5,277.5,,
9,Logan West,M,SBD,MR-V,52,Raw,2009,Neenah Powerlifting,USA,WI,51,87.5,92.5,-97.5,92.5,47.5,50,-52.5,50,110,120,127.5,127.5,270,,
10,Trey Nguyen,M,SBD,MR-V,52,Raw,2008,Cajun Prep,USA,LA,50.3,67.5,77.5,-82.5,77.5,42.5,50,55,55,95,97.5,110,110,242.5,,
DQ,Zachary Mathews,M,SBD,MR-V,52,Raw,2006,,USA,IL,51.6,-102.5,-102.5,-105,,72.5,-77.5,-77.5,72.5,142.5,145,-150,145,,,
1,Jerry Green,M,SBD,MR-V,56,Raw,2007,,USA,DE,55.3,145,155,162.5,162.5,67.5,75,-82.5,75,150,162.5,175,175,412.5,,
2,Diego Figueroa,M,SBD,MR-V,56,Raw,2006,,USA,IL,54.9,115,-117.5,135,135,-75,80,-85,80,175,187.5,195,195,410,,
3,Kaden Elzinga,M,SBD,MR-V,56,Raw,2007,,USA,MI,54.9,135,-150,-150,135,-82.5,87.5,-90,87.5,137.5,145,155,155,377.5,,
4,Alex Duel,M,SBD,MR-V,56,Raw,2006,,USA,WI,55.7,107.5,115,120,120,75,80,-85,80,-155,160,175,175,375,,
5,Christian Tran,M,SBD,MR-V,56,Raw,2006,,USA,LA,55,110,120,125,125,62.5,67.5,-70,67.5,160,172.5,-182.5,172.5,365,,
6,Ethan Dietz,M,SBD,MR-V,56,Raw,2006,Neenah Powerlifting,USA,WI,54.8,117.5,122.5,127.5,127.5,-72.5,72.5,75,75,140,147.5,155,155,357.5,,
7,Mason Books,M,SBD,MR-V,56,Raw,2007,Elk Mound High School Powerlifting,USA,WI,55.8,120,-125,-125,120,57.5,60,62.5,62.5,152.5,160,-165,160,342.5,,
8,Jacob Woinarowicz,M,SBD,MR-V,56,Raw,2007,,USA,WY,55.5,112.5,-122.5,-122.5,112.5,70,77.5,-82.5,77.5,140,-147.5,147.5,147.5,337.5,,
9,Ryon Rezania,M,SBD,MR-V,56,Raw,2005,,USA,MA,54.9,117.5,120,-125,120,-80,80,-82.5,80,122.5,130,-135,130,330,,
10,Hugh Herzog,M,SBD,MR-V,56,Raw,2006,,USA,LA,55.6,-117.5,117.5,-127.5,117.5,92.5,-97.5,-97.5,92.5,107.5,112.5,117.5,117.5,327.5,,
11,Edison Wei,M,SBD,MR-V,56,Raw,2006,Boston Latin Powerlifting,USA,MA,55.9,-102.5,107.5,115,115,55,60,62.5,62.5,127.5,135,145,145,322.5,,
12,Justin Lenius,M,SBD,MR-V,56,Raw,2007,,USA,WI,54.7,85,97.5,-107.5,97.5,60,62.5,-67.5,62.5,132.5,142.5,-147.5,142.5,302.5,,
DQ,Liam Rennert,M,SBD,MR-V,56,Raw,2008,Neenah Powerlifting,USA,WI,55.9,132.5,-137.5,-137.5,132.5,85,90,-95,90,-160,-160,,,,,
1,Dave Domingo,M,SBD,MR-V,60,Raw,2005,,USA,WI,59.9,180,187.5,190,190,97.5,102.5,107.5,107.5,197.5,207.5,212.5,212.5,510,,
2,Sean Murray,M,SBD,MR-V,60,Raw,2005,,USA,MI,59.3,160,170,177.5,177.5,110,115,-120,115,182.5,197.5,-212.5,197.5,490,,
3,Miles Tolman,M,SBD,MR-V,60,Raw,2006,,USA,CT,59.5,162.5,175,180,180,90,95,100,100,182.5,200,210,210,490,,
4,Caden Reeser,M,SBD,MR-V,60,Raw,2007,,USA,LA,59.95,-175,175,-182.5,175,90,95,-102.5,95,185,-202.5,-202.5,185,455,,
5,Tayten McAlister,M,SBD,MR-V,60,Raw,2006,,USA,SC,59.15,142.5,150,-155,150,92.5,97.5,-102.5,97.5,187.5,200,205,205,452.5,,
6,Anthony LoGiudice,M,SBD,MR-V,60,Raw,2006,,USA,NY,59.85,145,147.5,160,160,100,110,-112.5,110,145,160,172.5,172.5,442.5,,
7,Felipe Carrasco,M,SBD,MR-V,60,Raw,2005,,USA,GA,57.45,150,160,170,170,82.5,90,-97.5,90,150,160,172.5,172.5,432.5,,
8,Bryand Mao,M,SBD,MR-V,60,Raw,2008,Cajun Prep,USA,LA,59.2,135,145,155,155,82.5,92.5,97.5,97.5,155,180,-197.5,180,432.5,,
9,Reyes Rivas-Juarez,M,SBD,MR-V,60,Raw,2005,Lexington power Lifting,USA,NE,58.65,125,130,-135,130,77.5,82.5,87.5,87.5,160,-175,175,175,392.5,,
10,Ethan Lewey,M,SBD,MR-V,60,Raw,2006,,USA,IA,58.65,122.5,-132.5,132.5,132.5,72.5,77.5,-80,77.5,155,170,-182.5,170,380,,
11,Logan Webb,M,SBD,MR-V,60,Raw,2006,,USA,MA,59.7,137.5,142.5,145,145,80,85,-87.5,85,145,150,-155,150,380,,
12,Mason Mathe,M,SBD,MR-V,60,Raw,2009,,USA,WI,58.8,-140,142.5,147.5,147.5,85,87.5,-90,87.5,127.5,135,142.5,142.5,377.5,,
13,Julian Zamora,M,SBD,MR-V,60,Raw,2006,Lexington power Lifting,USA,NE,59.55,122.5,-127.5,-127.5,122.5,67.5,70,-72.5,70,175,180,182.5,182.5,375,,
14,Hayden Wolf,M,SBD,MR-V,60,Raw,2006,Elk Mound High School Powerlifting,USA,WI,59.7,115,120,122.5,122.5,-72.5,-72.5,72.5,72.5,165,175,-180,175,370,,
15,Joshua Clements,M,SBD,MR-V,60,Raw,2007,,USA,WA,59.8,-115,115,-125,115,75,-80,-80,75,165,-175,175,175,365,,
16,Brody Cross,M,SBD,MR-V,60,Raw,2008,,USA,WI,59.8,110,125,132.5,132.5,70,80,-85,80,-130,135,147.5,147.5,360,,
17,Jessie Gutierrez,M,SBD,MR-V,60,Raw,2006,,USA,NE,58.65,-110,-110,110,110,67.5,-70,-70,67.5,160,170,-180,170,347.5,,
18,Dushaun LeGrand,M,SBD,MR-V,60,Raw,2006,,USA,WI,59.6,-120,120,-125,120,77.5,-80,-80,77.5,135,140,-142.5,140,337.5,,
19,Devin Corbett,M,SBD,MR-V,60,Raw,2009,St. John's Prep Powerlifting,USA,MA,58.1,-92.5,95,102.5,102.5,55,60,-62.5,60,120,130,-137.5,130,292.5,,
DQ,Gabriel Fenton,M,SBD,MR-V,60,Raw,2007,Elk Mound High School Powerlifting,USA,WI,59.4,-140,-140,-140,,57.5,-62.5,,57.5,160,165,-170,165,,,
1,Matthew Acevedo #1,M,SBD,MR-V,75,Raw,2007,,USA,NY,74.2,205,217.5,230,230,125,132.5,-137.5,132.5,-240,257.5,275,275,637.5,,
2,Adrian Kintzele,M,SBD,MR-V,75,Raw,2005,,USA,TX,73.1,220,232.5,-237.5,232.5,130,135,-140,135,235,250,257.5,257.5,625,,
3,Kyle Kim,M,SBD,MR-V,75,Raw,2005,,USA,MA,74.7,215,-222.5,225,225,127.5,132.5,135,135,227.5,240,262.5,262.5,622.5,,
4,Ethan Tran,M,SBD,MR-V,75,Raw,2006,,USA,MI,73.8,197.5,207.5,-212.5,207.5,130,-135,-135,130,250,265,282.5,282.5,620,,
5,Connor Laughlin,M,SBD,MR-V,75,Raw,2006,,USA,FL,74.4,215,-222.5,222.5,222.5,122.5,127.5,-132.5,127.5,255,270,-290,270,620,,
6,Lee Ericksen,M,SBD,MR-V,75,Raw,2006,,USA,WI,74.9,212.5,225,-230,225,142.5,147.5,152.5,152.5,225,240,-250,240,617.5,,
7,Ezequiel Ruiz,M,SBD,MR-V,75,Raw,2006,Lexington power Lifting,USA,NE,74.4,187.5,197.5,207.5,207.5,130,137.5,-142.5,137.5,225,240,250,250,595,,
8,Carter Bellair,M,SBD,MR-V,75,Raw,2006,,USA,CT,73.4,210,-220,-220,210,120,127.5,132.5,132.5,230,242.5,-252.5,242.5,585,,
9,John Abdelmessih,M,SBD,MR-V,75,Raw,2005,,USA,GA,74.5,-190,-195,195,195,142.5,152.5,-157.5,152.5,227.5,-240,-240,227.5,575,,
10,Nolan Daniel,M,SBD,MR-V,75,Raw,2006,,USA,GA,75,220,235,-252.5,235,102.5,107.5,-112.5,107.5,230,-247.5,-255,230,572.5,,
11,Mak Helwih,M,SBD,MR-V,75,Raw,2005,,USA,FL,73.8,195,205,-222.5,205,-122.5,122.5,130,130,220,232.5,-240,232.5,567.5,,
12,Elijah Sorenson,M,SBD,MR-V,75,Raw,2005,Elk Mound High School Powerlifting,USA,WI,74.3,182.5,192.5,197.5,197.5,115,122.5,-130,122.5,227.5,245,-257.5,245,565,,
13,Asher Rosenbaum,M,SBD,MR-V,75,Raw,2006,,USA,VT,74,172.5,185,195,195,125,132.5,-140,132.5,215,227.5,235,235,562.5,,
14,Aidan Calkins,M,SBD,MR-V,75,Raw,2006,,USA,LA,71.8,200,210,220,220,102.5,112.5,-120,112.5,212.5,227.5,-250,227.5,560,,
15,Charlie Poling,M,SBD,MR-V,75,Raw,2005,,USA,TN,73.9,190,205,220,220,105,112.5,-120,112.5,197.5,212.5,227.5,227.5,560,,
16,Connor Fields,M,SBD,MR-V,75,Raw,2005,,USA,NJ,73,200,210,-215,210,110,122.5,127.5,127.5,205,220,-227.5,220,557.5,,
17,Idden Tsai,M,SBD,MR-V,75,Raw,2005,,USA,IL,73.6,200,-207.5,-210,200,105,115,117.5,117.5,240,-260,-260,240,557.5,,
18,Alexander Oliver,M,SBD,MR-V,75,Raw,2006,,USA,CO,73.6,175,185,190,190,117.5,125,-132.5,125,225,240,-250,240,555,,
19,Joshua Stork,M,SBD,MR-V,75,Raw,2007,,USA,WI,74.5,215,-225,-225,215,110,-115,-115,110,210,220,-227.5,220,545,,
20,Maddox Parker,M,SBD,MR-V,75,Raw,2007,,USA,LA,71.5,167.5,180,187.5,187.5,130,-135,140,140,195,205,215,215,542.5,,
21,Karsten Machala,M,SBD,MR-V,75,Raw,2006,,USA,OK,71.25,155,170,185,185,100,110,-112.5,110,210,227.5,245,245,540,,
22,Ryan Ly,M,SBD,MR-V,75,Raw,2005,,USA,TX,72.6,192.5,202.5,205,205,107.5,110,-115,110,212.5,225,-237.5,225,540,,
23,Daniel Orellana,M,SBD,MR-V,75,Raw,2006,,USA,FL,74.1,185,-190,190,190,115,122.5,127.5,127.5,205,220,-227.5,220,537.5,,
24,John Hougen,M,SBD,MR-V,75,Raw,2006,,USA,VA,74.7,175,190,-195,190,130,140,-142.5,140,185,200,207.5,207.5,537.5,,
25,Andrew Reed,M,SBD,MR-V,75,Raw,2006,,USA,AL,74.3,172.5,185,195,195,102.5,110,-115,110,200,212.5,230,230,535,,
26,Vincent Eveland,M,SBD,MR-V,75,Raw,2007,,USA,OH,72.8,190,200,-210,200,137.5,145,-153,145,165,175,187.5,187.5,532.5,,
27,Gabriel Prince,M,SBD,MR-V,75,Raw,2005,,USA,WI,75,180,187.5,192.5,192.5,102.5,110,112.5,112.5,217.5,227.5,-235,227.5,532.5,,
28,Mario Khalel,M,SBD,MR-V,75,Raw,2007,,USA,GA,74,187.5,200,-220,200,110,120,-130,120,197.5,210,-217.5,210,530,,
29,Charles Kim,M,SBD,MR-V,75,Raw,2005,,USA,MA,74.3,182.5,192.5,197.5,197.5,127.5,-135,-140,127.5,182.5,195,205,205,530,,
30,Matt Wicks,M,SBD,MR-V,75,Raw,2006,,USA,NJ,72,185,202.5,212.5,212.5,100,112.5,-117.5,112.5,190,202.5,-207.5,202.5,527.5,,
31,Keagan Matsche,M,SBD,MR-V,75,Raw,2006,,USA,WI,72.55,185,-192.5,-192.5,185,110,120,-125,120,210,220,-227.5,220,525,,
32,Harrison Bigda,M,SBD,MR-V,75,Raw,2006,,USA,GA,74.35,165,-175,175,175,125,130,-135,130,205,220,-230,220,525,,
33,Will Drazkowski,M,SBD,MR-V,75,Raw,2006,,USA,WI,72.2,170,177.5,182.5,182.5,115,120,-127.5,120,197.5,205,220,220,522.5,,
34,Carter Zoz,M,SBD,MR-V,75,Raw,2008,Neenah Powerlifting,USA,WI,73.7,180,192.5,205,205,120,127.5,-132.5,127.5,170,180,190,190,522.5,,
35,Canaan Hoosier,M,SBD,MR-V,75,Raw,2005,,USA,LA,74.8,165,185,192.5,192.5,105,112.5,120,120,192.5,200,207.5,207.5,520,,
36,Tyvon Nichols,M,SBD,MR-V,75,Raw,2006,,USA,WY,74.2,165,177.5,-185,177.5,117.5,125,130,130,195,210,-222.5,210,517.5,,
37,Joshua Chou,M,SBD,MR-V,75,Raw,2005,Cajun Prep,USA,LA,69.7,175,190,-195,190,117.5,125,127.5,127.5,177.5,195,-207.5,195,512.5,,
38,Shepherd Scimemi,M,SBD,MR-V,75,Raw,2006,,USA,TX,73.3,180,190,200,200,112.5,120,-122.5,120,180,192.5,-205,192.5,512.5,,
39,Anthony Nichols #2,M,SBD,MR-V,75,Raw,2006,,USA,CA,73.5,-200,202.5,-205,202.5,110,115,-117.5,115,170,177.5,190,190,507.5,,
40,Sam Volkman,M,SBD,MR-V,75,Raw,2005,Neenah Powerlifting,USA,WI,73.1,167.5,177.5,-185,177.5,110,115,-117.5,115,195,205,212.5,212.5,505,,
41,Francis Zeller,M,SBD,MR-V,75,Raw,2005,,USA,WI,69.9,-172.5,172.5,182.5,182.5,107.5,115,-120,115,195,200,205,205,502.5,,
42,Leo Evans,M,SBD,MR-V,75,Raw,2007,,USA,CO,74.7,165,175,-182.5,175,110,117.5,-125,117.5,195,210,-227.5,210,502.5,,
43,Lucas Miller,M,SBD,MR-V,75,Raw,2006,,USA,OH,73.2,180,190,195,195,102.5,107.5,110,110,185,195,-200,195,500,,
44,Eden Aguilar,M,SBD,MR-V,75,Raw,2008,,USA,IA,72.8,167.5,180,187.5,187.5,92.5,97.5,100,100,197.5,210,-217.5,210,497.5,,
45,Matthew Melson,M,SBD,MR-V,75,Raw,2006,,USA,MO,71.8,-162.5,165,175,175,87.5,92.5,-97.5,92.5,205,217.5,227.5,227.5,495,,
46,Ayden Hildebrandt,M,SBD,MR-V,75,Raw,2007,,USA,WI,74.4,170,177.5,-182.5,177.5,107.5,112.5,,112.5,182.5,192.5,202.5,202.5,492.5,,
47,Josh Salop,M,SBD,MR-V,75,Raw,2007,,USA,MA,72.7,180,187.5,190,190,100,-105,-105,100,190,200,-210,200,490,,
48,Hayden Hopkins,M,SBD,MR-V,75,Raw,2006,,USA,IL,74.85,157.5,167.5,177.5,177.5,107.5,117.5,-120,117.5,182.5,187.5,195,195,490,,
49,Kruse Yuhas,M,SBD,MR-V,75,Raw,2005,,USA,WI,73.8,-162.5,165,-177.5,165,112.5,120,-125,120,187.5,200,-210,200,485,,
50,Porter Mauney,M,SBD,MR-V,75,Raw,2006,,USA,LA,71.3,-172.5,182.5,195,195,95,102.5,-110,102.5,185,-192.5,-205,185,482.5,,
51,Benjamin Gue,M,SBD,MR-V,75,Raw,2005,,USA,MI,72.75,160,167.5,177.5,177.5,90,95,-97.5,95,187.5,200,210,210,482.5,,
52,Richard Comstock,M,SBD,MR-V,75,Raw,2005,,USA,VA,74.2,167.5,177.5,182.5,182.5,97.5,107.5,110,110,175,-190,190,190,482.5,,
53,Maximus Behnke,M,SBD,MR-V,75,Raw,2009,,USA,WI,73.1,175,182.5,-187.5,182.5,100,105,107.5,107.5,175,182.5,190,190,480,,
54,Jaden Vondracek,M,SBD,MR-V,75,Raw,2007,,USA,WI,74.8,147.5,-157.5,157.5,157.5,95,100,-105,100,210,220,-230,220,477.5,,
55,Ricardo Navedo,M,SBD,MR-V,75,Raw,2007,,USA,MA,72.85,152.5,160,167.5,167.5,97.5,102.5,105,105,182.5,192.5,202.5,202.5,475,,
56,Logan Hoffman,M,SBD,MR-V,75,Raw,2007,,USA,VA,73.75,160,170,177.5,177.5,92.5,97.5,102.5,102.5,-175,185,195,195,475,,
57,Spencer Lorenzen,M,SBD,MR-V,75,Raw,2006,,USA,CA,73.8,150,160,-170,160,92.5,100,-105,100,200,215,-220,215,475,,
58,Dawson Searfoss,M,SBD,MR-V,75,Raw,2007,,USA,CT,74.1,172.5,185,187.5,187.5,95,100,102.5,102.5,172.5,185,-202.5,185,475,,
59,Matthew Hernandez,M,SBD,MR-V,75,Raw,2007,,USA,NE,74.2,175,-182.5,-182.5,175,87.5,92.5,-95,92.5,197.5,205,-212.5,205,472.5,,
60,Angel Pena Francisco,M,SBD,MR-V,75,Raw,2006,,USA,NE,74.1,165,170,-172.5,170,90,97.5,105,105,172.5,182.5,187.5,187.5,462.5,,
61,Matthew Mott,M,SBD,MR-V,75,Raw,2007,CROS-LEX POWERLIFTING CLUB,USA,MI,74.25,142.5,160,-170,160,82.5,87.5,-92.5,87.5,197.5,212.5,-217.5,212.5,460,,
62,Christopher Connell,M,SBD,MR-V,75,Raw,2007,,USA,CA,71.9,150,155,-160,155,102.5,110,-115,110,175,185,190,190,455,,
63,Luke Lister,M,SBD,MR-V,75,Raw,2006,,USA,IL,73.45,-155,-155,155,155,110,-115,-115,110,185,190,-192.5,190,455,,
64,Andrew Chen,M,SBD,MR-V,75,Raw,2008,,USA,IL,74.2,160,170,-175,170,80,85,-90,85,175,187.5,200,200,455,,
65,Jasen Colunga,M,SBD,MR-V,75,Raw,2007,,USA,WI,71.6,145,147.5,152.5,152.5,95,100,-105,100,185,190,200,200,452.5,,
66,Braedon Thatcher,M,SBD,MR-V,75,Raw,2005,Elk Mound High School Powerlifting,USA,WI,74.5,175,177.5,-185,177.5,87.5,-90,-90,87.5,185,-190,-190,185,450,,
67,Cooper Reese,M,SBD,MR-V,75,Raw,2005,,USA,WI,71.6,147.5,155,-157.5,155,97.5,-105,-105,97.5,182.5,195,-202.5,195,447.5,,
68,Evan Hartigan,M,SBD,MR-V,75,Raw,2005,,USA,FL,72.9,150,157.5,160,160,82.5,-87.5,87.5,87.5,172.5,185,190,190,437.5,,
69,Simon Brown,M,SBD,MR-V,75,Raw,2006,Boston Latin Powerlifting,USA,MA,72.6,137.5,145,152.5,152.5,82.5,87.5,92.5,92.5,167.5,177.5,182.5,182.5,427.5,,
70,Dash Title,M,SBD,MR-V,75,Raw,2006,,USA,MN,74.8,127.5,135,142.5,142.5,87.5,95,100,100,165,175,185,185,427.5,,
71,Elijah McGill,M,SBD,MR-V,75,Raw,2006,,USA,TX,74.65,135,142.5,150,150,92.5,100,-102.5,100,150,160,170,170,420,,
72,Robby Murray,M,SBD,MR-V,75,Raw,2006,,USA,WI,74.4,122.5,-132.5,132.5,132.5,72.5,77.5,82.5,82.5,185,-192.5,-192.5,185,400,,
DQ,Nicholas Katzman,M,SBD,MR-V,75,Raw,2006,,USA,WI,70.65,165,170,-175,170,75,-85,-85,75,-205,-205,-205,,,,
DQ,Carlos Hernandez #19,M,SBD,MR-V,75,Raw,2007,,USA,NJ,72.85,-175,175,-185,175,-102.5,-102.5,-102.5,,220,227.5,232.5,232.5,,,
DQ,Ezra Wagner,M,SBD,MR-V,75,Raw,2007,,USA,FL,74,-155,-155,-185,,82.5,95,-102.5,95,165,180,187.5,187.5,,,
1,Braden Hall,M,SBD,MR-V,90,Raw,2005,,USA,TX,88.1,240,252.5,265,265,147.5,157.5,165,165,245,265,277.5,277.5,707.5,,
2,Nathan Burdick,M,SBD,MR-V,90,Raw,2008,,USA,MI,84.3,232.5,240,245,245,137.5,142.5,-145,142.5,245,265,270,270,657.5,,
3,Adrian Rapier,M,SBD,MR-V,90,Raw,2006,,USA,TX,88.4,-220,230,240,240,120,127.5,132.5,132.5,245,265,280,280,652.5,,
4,Carter Cloe,M,SBD,MR-V,90,Raw,2006,,USA,IA,88.2,-255,255,-260,255,135,-140,-140,135,245,250,260,260,650,,
5,Matthew Dapra,M,SBD,MR-V,90,Raw,2006,CBA Colts Powerlifting,USA,NJ,89,225,240,255,255,122.5,132.5,-140,132.5,220,235,250,250,637.5,,
6,Luke Whitted,M,SBD,MR-V,90,Raw,2006,,USA,NC,89.5,215,235,245,245,-117.5,125,-132.5,125,247.5,267.5,-290,267.5,637.5,,
7,Gavin Johnson,M,SBD,MR-V,90,Raw,2006,,USA,SC,85,225,-242.5,-242.5,225,152.5,160,162.5,162.5,232.5,247.5,-257.5,247.5,635,,
8,Jack Dolezal,M,SBD,MR-V,90,Raw,2007,,USA,OK,86.9,227.5,240,-252.5,240,132.5,137.5,142.5,142.5,225,232.5,240,240,622.5,,
9,John Strauch VI,M,SBD,MR-V,90,Raw,2005,,USA,CO,86.7,215,227.5,235,235,120,127.5,132.5,132.5,225,240,252.5,252.5,620,,
10,Colton Christensen,M,SBD,MR-V,90,Raw,2006,,USA,WI,88,220,230,237.5,237.5,117.5,127.5,135,135,225,235,245,245,617.5,,
11,Aiden David,M,SBD,MR-V,90,Raw,2005,,USA,OH,88,-212.5,220,-232.5,220,130,140,145,145,247.5,-260,-260,247.5,612.5,,
12,Alex Sanders,M,SBD,MR-V,90,Raw,2007,,USA,MS,87.6,210,222.5,-237.5,222.5,125,137.5,-147.5,137.5,215,237.5,247.5,247.5,607.5,,
13,Cole Browder,M,SBD,MR-V,90,Raw,2007,,USA,PA,88.4,-205,-220,220,220,117.5,130,-132.5,130,240,257.5,-262.5,257.5,607.5,,
14,Logan Allaire,M,SBD,MR-V,90,Raw,2006,,USA,ME,86.9,235,250,255,255,130,-137.5,-137.5,130,217.5,-222.5,-222.5,217.5,602.5,,
15,Erick Olave,M,SBD,MR-V,90,Raw,2006,,USA,WI,89.6,205,215,222.5,222.5,122.5,-130,-130,122.5,237.5,250,257.5,257.5,602.5,,
16,Erik Malmberg,M,SBD,MR-V,90,Raw,2005,,USA,WI,88,197.5,205,215,215,135,140,-145,140,235,242.5,-252.5,242.5,597.5,,
17,Taj Grewal,M,SBD,MR-V,90,Raw,2006,,USA,NY,88.7,207.5,-220,-220,207.5,130,-135,-135,130,245,260,-262.5,260,597.5,,
18,Malachi Walker,M,SBD,MR-V,90,Raw,2006,,USA,PA,87.2,187.5,197.5,-207.5,197.5,137.5,145,-150,145,217.5,230,247.5,247.5,590,,
19,Vincent Cardoza,M,SBD,MR-V,90,Raw,2006,Neenah Powerlifting,USA,WI,87.95,202.5,217.5,-225,217.5,112.5,117.5,122.5,122.5,250,-260,-260,250,590,,
20,Keith Stroud,M,SBD,MR-V,90,Raw,2006,,USA,TN,88.9,212.5,-225,-225,212.5,132.5,135,-137.5,135,240,-245,-245,240,587.5,,
21,TJ Jaji,M,SBD,MR-V,90,Raw,2006,,USA,GA,87.6,215,230,-240,230,-120,125,137.5,137.5,202.5,215,-230,215,582.5,,
22,Noel Kurtin,M,SBD,MR-V,90,Raw,2008,,USA,TX,89.6,-225,-232.5,232.5,232.5,112.5,117.5,-120,117.5,227.5,232.5,-240,232.5,582.5,,
23,Jhonathan Seltzer,M,SBD,MR-V,90,Raw,2006,,USA,IL,87.85,182.5,197.5,-207.5,197.5,135,142.5,-147.5,142.5,225,237.5,-245,237.5,577.5,,
24,Ozan Kleiman,M,SBD,MR-V,90,Raw,2007,,USA,TX,88.8,202.5,-210,215,215,110,115,117.5,117.5,215,230,240,240,572.5,,
25,Josiah Slate,M,SBD,MR-V,90,Raw,2006,,USA,FL,85.25,192.5,207.5,-215,207.5,115,127.5,-137.5,127.5,205,220,232.5,232.5,567.5,,
26,Preston Smith,M,SBD,MR-V,90,Raw,2007,Elk Mound High School Powerlifting,USA,WI,88.5,-227.5,-227.5,227.5,227.5,102.5,-110,110,110,-222.5,222.5,227.5,227.5,565,,
27,Andrew Baker #4,M,SBD,MR-V,90,Raw,2006,,USA,TX,87.25,197.5,205,-215,205,115,-125,-130,115,205,220,232.5,232.5,552.5,,
28,Brady Bosken,M,SBD,MR-V,90,Raw,2006,,USA,TN,85,170,187.5,-197.5,187.5,122.5,137.5,142.5,142.5,185,200,215,215,545,,
29,Peter Cosmopoulos,M,SBD,MR-V,90,Raw,2007,,USA,MO,85.5,-187.5,192.5,-197.5,192.5,115,122.5,-127.5,122.5,200,215,230,230,545,,
30,Cristopf Atkinson,M,SBD,MR-V,90,Raw,2006,,USA,WY,88.7,190,205,212.5,212.5,105,115,-122.5,115,202.5,210,-215,210,537.5,,
31,Daniel Harness #1,M,SBD,MR-V,90,Raw,2006,,USA,WI,88,165,172.5,180,180,115,122.5,130,130,215,220,222.5,222.5,532.5,,
32,Ashton Post,M,SBD,MR-V,90,Raw,2006,,USA,WI,82.9,182.5,192.5,-205,192.5,100,107.5,-112.5,107.5,215,227.5,-232.5,227.5,527.5,,
33,Domenick Cerilli,M,SBD,MR-V,90,Raw,2006,,USA,PA,87.75,187.5,-197.5,-197.5,187.5,100,105,-110,105,235,-245,-245,235,527.5,,
34,Lyric Anthony,M,SBD,MR-V,90,Raw,2006,,USA,WI,86.7,167.5,182.5,195,195,107.5,115,,115,205,212.5,,212.5,522.5,,
35,Gavin Neville,M,SBD,MR-V,90,Raw,2007,CBA Colts Powerlifting,USA,NJ,87.35,195,205,-210,205,95,102.5,-107.5,102.5,215,-232.5,-235,215,522.5,,
36,Declan Foster,M,SBD,MR-V,90,Raw,2006,,USA,MA,84.9,185,195,-207.5,195,105,112.5,-120,112.5,187.5,200,210,210,517.5,,
37,Cesar Francisco-Francisco,M,SBD,MR-V,90,Raw,2006,Lexington power Lifting,USA,NE,88.9,167.5,177.5,-180,177.5,107.5,-115,-115,107.5,220,232.5,-242.5,232.5,517.5,,
38,Cameron Thayer,M,SBD,MR-V,90,Raw,2006,,USA,TX,86.35,175,187.5,195,195,90,100,-107.5,100,195,220,-245,220,515,,
39,Justin Segura,M,SBD,MR-V,90,Raw,2005,,USA,CA,88,-190,-190,190,190,110,112.5,-120,112.5,200,207.5,-227.5,207.5,510,,
40,Noah Gawarecki,M,SBD,MR-V,90,Raw,2006,,USA,LA,89.4,197.5,205,-215,205,-90,90,-95,90,205,212.5,-220,212.5,507.5,,
41,Austin Lizzotte,M,SBD,MR-V,90,Raw,2006,,USA,ME,86.6,190,202.5,-207.5,202.5,100,105,110,110,170,182.5,190,190,502.5,,
42,Levi Uranker,M,SBD,MR-V,90,Raw,2007,,USA,LA,89,-160,160,182.5,182.5,75,90,-95,90,195,215,227.5,227.5,500,,
43,Hudson Tamulion,M,SBD,MR-V,90,Raw,2005,,USA,WI,87,172.5,180,185,185,-102.5,102.5,-107.5,102.5,197.5,207.5,-215,207.5,495,,
44,Ivan Lopez-Castro,M,SBD,MR-V,90,Raw,2006,,USA,NE,90,170,180,-182.5,180,97.5,-102.5,-102.5,97.5,185,192.5,207.5,207.5,485,,
45,Alex Gratton,M,SBD,MR-V,90,Raw,2005,,USA,WI,87.9,152.5,-157.5,162.5,162.5,105,-112.5,-112.5,105,197.5,202.5,205,205,472.5,,
DQ,Ezra Strasman,M,SBD,MR-V,90,Raw,2007,Neenah Powerlifting,USA,WI,83.5,192.5,202.5,-207.5,202.5,110,-115,-115,110,-247.5,-247.5,-247.5,,,,
DQ,John Vanden Heuvel,M,SBD,MR-V,90,Raw,2005,,USA,WI,86.6,162.5,-167.5,-167.5,162.5,-100,-100,-100,,200,-215,-215,200,,,
DQ,Terrence McCrae,M,SBD,MR-V,90,Raw,2006,,USA,GA,87.6,225,235,-240,235,-150,-150,,,250,265,-277.5,265,,,
DQ,Caden Knox,M,SBD,MR-V,90,Raw,2006,,USA,TX,89,250,260,-270,260,140,-145,,140,-240,-240,-240,,,,
DQ,Humberto Chavez,M,SBD,MR-V,90,Raw,2005,,USA,FL,90,-237.5,237.5,240,240,-137.5,-137.5,-137.5,,245,257.5,-262.5,257.5,,,
1,Elias Mank,M,SBD,MR-V,100,Raw,2005,,USA,AK,98.1,265,282.5,-285,282.5,137.5,140,145,145,-295,300,302.5,302.5,730,,
2,Maximus Dhabalt,M,SBD,MR-V,100,Raw,2005,,USA,IA,99.4,237.5,252.5,267.5,267.5,180,-190,190,190,240,255,-275,255,712.5,,
3,Owen Haseleu,M,SBD,MR-V,100,Raw,2005,,USA,WI,98.5,247.5,255,260,260,167.5,175,180,180,230,237.5,240,240,680,,
4,John Clayton,M,SBD,MR-V,100,Raw,2007,,USA,IL,98.3,210,220,225,225,120,130,137.5,137.5,280,295,300,300,662.5,,
5,Quinlan Beachy,M,SBD,MR-V,100,Raw,2006,,USA,VA,99.4,240,242.5,262.5,262.5,150,157.5,160,160,-212.5,227.5,237.5,237.5,660,,
6,Gray McCurdy,M,SBD,MR-V,100,Raw,2006,,USA,CO,98.7,195,-207.5,210,210,160,172.5,-177.5,172.5,252.5,-262.5,265,265,647.5,,
7,Eli Bickel,M,SBD,MR-V,100,Raw,2006,,USA,CO,98.1,205,217.5,220,220,-180,-180,180,180,-230,230,-262.5,230,630,,
8,Patrick Downs,M,SBD,MR-V,100,Raw,2006,,USA,WI,98.7,250,260,-265,260,120,127.5,-130,127.5,240,-260,-260,240,627.5,,
9,Jesus Arriola,M,SBD,MR-V,100,Raw,2006,,USA,NC,93.7,-215,-225,225,225,125,130,135,135,-227.5,255,265,265,625,,
10,Jacob Carr,M,SBD,MR-V,100,Raw,2005,,USA,VA,95,215,225,230,230,125,135,-142.5,135,245,260,-272.5,260,625,,
11,Ricky Taionkeo,M,SBD,MR-V,100,Raw,2006,Cajun Prep,USA,LA,98.2,205,225,240,240,110,-125,125,125,232.5,257.5,-272.5,257.5,622.5,,
12,Mason Klinger,M,SBD,MR-V,100,Raw,2005,,USA,WI,97.2,232.5,-242.5,-242.5,232.5,130,135,-137.5,135,250,-267.5,-267.5,250,617.5,,
13,Wyatt Olive,M,SBD,MR-V,100,Raw,2006,,USA,TX,96.5,-245,245,-250,245,125,130,-135,130,230,240,-250,240,615,,
14,Riley Greening,M,SBD,MR-V,100,Raw,2004,,USA,MO,96,227.5,-237.5,-240,227.5,102.5,110,125,125,227.5,245,-250,245,597.5,,
15,Daniel DuVernay,M,SBD,MR-V,100,Raw,2006,,USA,WI,98.1,197.5,205,210,210,142.5,145,147.5,147.5,220,230,237.5,237.5,595,,
16,Dylan Flack,M,SBD,MR-V,100,Raw,2005,,USA,IA,98.2,212.5,222.5,-232.5,222.5,112.5,-115,,112.5,-252.5,-252.5,252.5,252.5,587.5,,
17,Lance Kurz,M,SBD,MR-V,100,Raw,2007,,USA,WI,99.3,195,205,-212.5,205,122.5,-132.5,-132.5,122.5,235,252.5,-260,252.5,580,,
18,Joe Przybyla,M,SBD,MR-V,100,Raw,2005,,USA,IL,94.3,215,230,240,240,115,122.5,127.5,127.5,195,210,-227.5,210,577.5,,
19,Jack Steele,M,SBD,MR-V,100,Raw,2006,,USA,TN,91.4,200,210,-215,210,137.5,147.5,-152.5,147.5,200,212.5,217.5,217.5,575,,
20,Rex Polly,M,SBD,MR-V,100,Raw,2005,,USA,GA,97.6,190,200,212.5,212.5,135,145,-152.5,145,202.5,215,-227.5,215,572.5,,
21,Luke Possinger,M,SBD,MR-V,100,Raw,2008,,USA,IL,95.7,200,210,-220,210,132.5,-140,-140,132.5,200,210,222.5,222.5,565,,
22,Hayden Kersten-Clark,M,SBD,MR-V,100,Raw,2008,Neenah Powerlifting,USA,WI,96.5,-205,210,222.5,222.5,-120,122.5,127.5,127.5,195,205,-215,205,555,,
23,Eyon Hermsen,M,SBD,MR-V,100,Raw,2007,Neenah Powerlifting,USA,WI,90.8,175,182.5,190,190,105,110,112.5,112.5,237.5,-247.5,-247.5,237.5,540,,
24,Jaden Postill,M,SBD,MR-V,100,Raw,2006,CROS-LEX POWERLIFTING CLUB,USA,MI,98.6,167.5,177.5,-182.5,177.5,102.5,107.5,112.5,112.5,225,245,-265,245,535,,
25,Jeffrey Fong,M,SBD,MR-V,100,Raw,2006,,USA,CA,94.2,-185,185,197.5,197.5,112.5,120,-122.5,120,192.5,205,-212.5,205,522.5,,
26,Collin Albrecht,M,SBD,MR-V,100,Raw,2005,,USA,WI,95.7,192.5,-205,205,205,112.5,-125,-125,112.5,192.5,205,-225,205,522.5,,
27,Isidro Muniz,M,SBD,MR-V,100,Raw,2006,,USA,WI,97.2,165,175,185,185,105,-110,110,110,215,227.5,-230,227.5,522.5,,
28,Caden Genrich,M,SBD,MR-V,100,Raw,2006,,USA,WI,99.1,197.5,207.5,212.5,212.5,92.5,102.5,-105,102.5,195,205,-212.5,205,520,,
29,Judah Victor,M,SBD,MR-V,100,Raw,2005,,USA,WI,92.6,185,197.5,-205,197.5,102.5,110,-117.5,110,200,210,-215,210,517.5,,
30,Jack Coval,M,SBD,MR-V,100,Raw,2006,,USA,WI,99.4,192.5,197.5,200,200,107.5,112.5,-115,112.5,200,202.5,-205,202.5,515,,
31,Colin O'Connor,M,SBD,MR-V,100,Raw,2006,,USA,MN,99.4,175,-185,-185,175,117.5,122.5,127.5,127.5,182.5,-192.5,-192.5,182.5,485,,
DQ,Rowan McCune,M,SBD,MR-V,100,Raw,2007,,USA,CO,95.1,-197.5,-205,-205,,132.5,142.5,-152.5,142.5,-192.5,197.5,-200,197.5,,,
DQ,Elliott Roberts,M,SBD,MR-V,100,Raw,2006,,USA,WI,98.6,195,200,-207.5,200,112.5,-115,-115,112.5,-250,-250,,,,,
1,Blake Wendt,M,SBD,MR-V,110,Raw,2006,,USA,IL,106.55,270,300,-315,300,187.5,195,-200,195,-265,265,-300,265,760,,
2,Brayden Naus,M,SBD,MR-V,110,Raw,2006,,USA,GA,109.8,275,282.5,290,290,157.5,165,172.5,172.5,250,260,272.5,272.5,735,,
3,Justin Clark #5,M,SBD,MR-V,110,Raw,2005,,USA,OH,102.9,240,257.5,275,275,125,132.5,-142.5,132.5,255,275,-290,275,682.5,,
4,Hunter Christenson,M,SBD,MR-V,110,Raw,2008,,USA,NE,108.45,247.5,257.5,-260,257.5,135,142.5,-145,142.5,265,282.5,-292.5,282.5,682.5,,
5,Landon Taylor,M,SBD,MR-V,110,Raw,2006,,USA,OH,107.05,225,245,252.5,252.5,140,157.5,160,160,230,265,267.5,267.5,680,,
6,Adrian Kamo,M,SBD,MR-V,110,Raw,2006,,USA,NJ,107.3,240,247.5,250,250,157.5,162.5,,162.5,235,240,242.5,242.5,655,,
7,Caleb Birzer,M,SBD,MR-V,110,Raw,2006,,USA,KS,107.55,255,-270,270,270,120,127.5,-135,127.5,-225,242.5,250,250,647.5,,
8,Dustin Wurtz,M,SBD,MR-V,110,Raw,2006,,USA,SD,105.45,222.5,-235,235,235,127.5,-137.5,-137.5,127.5,257.5,272.5,-280,272.5,635,,
9,Samuel Ruppe,M,SBD,MR-V,110,Raw,2006,Elk Mound High School Powerlifting,USA,WI,107.75,225,-240,-242.5,225,142.5,,,142.5,260,-282.5,,260,627.5,,
10,Daniel Foley #1,M,SBD,MR-V,110,Raw,2005,,USA,MD,101.25,217.5,227.5,237.5,237.5,115,122.5,130,130,-242.5,255,,255,622.5,,
11,Jayden Meyer,M,SBD,MR-V,110,Raw,2006,,USA,WI,101.6,195,207.5,-217.5,207.5,125,127.5,-132.5,127.5,247.5,260,-272.5,260,595,,
12,Sam Scheer,M,SBD,MR-V,110,Raw,2006,Neenah Powerlifting,USA,WI,103.2,195,207.5,215,215,120,130,137.5,137.5,-215,220,235,235,587.5,,
13,Vincent Joubert-Stenzel,M,SBD,MR-V,110,Raw,2005,,USA,NC,106.75,207.5,210,225,225,132.5,142.5,-152.5,142.5,200,215,-222.5,215,582.5,,
14,Cody Saenz,M,SBD,MR-V,110,Raw,2006,,USA,TX,107.25,207.5,215,-227.5,215,115,122.5,-125,122.5,217.5,225,230,230,567.5,,
15,Brody Allwood,M,SBD,MR-V,110,Raw,2007,,USA,WI,105.4,192.5,200,207.5,207.5,125,130,-135,130,212.5,220,225,225,562.5,,
16,Jack Kaden,M,SBD,MR-V,110,Raw,2005,,USA,IL,107,185,200,210,210,105,110,112.5,112.5,205,222.5,232.5,232.5,555,,
17,Sergio Aguirre,M,SBD,MR-V,110,Raw,2007,,USA,WI,106.3,187.5,-202.5,-202.5,187.5,82.5,90,-97.5,90,210,230,-260,230,507.5,,
1,Brandon Taylor #1,M,SBD,MR-V,125,Raw,2005,,USA,MS,122.6,275,297.5,310,310,-165,172.5,177.5,177.5,247.5,267.5,-277.5,267.5,755,,
2,Jacob Mancu,M,SBD,MR-V,125,Raw,2007,,USA,IN,123.2,275,285,290,290,132.5,137.5,140,140,260,280,300,300,730,,
3,Austin Sparks,M,SBD,MR-V,125,Raw,2007,,USA,MI,121.4,255,267.5,-275,267.5,-130,-135,135,135,217.5,-227.5,227.5,227.5,630,,
4,Edward Medaris,M,SBD,MR-V,125,Raw,2006,,USA,CT,122.9,215,225,235,235,115,125,132.5,132.5,225,242.5,-265,242.5,610,,
5,Andres Carrillo,M,SBD,MR-V,125,Raw,2007,Elk Mound High School Powerlifting,USA,WI,114.3,227.5,-242.5,-242.5,227.5,132.5,135,140,140,227.5,232.5,240,240,607.5,,
6,Jack Morawetz,M,SBD,MR-V,125,Raw,2005,,USA,WI,117.9,-200,207.5,215,215,110,115,122.5,122.5,205,230,245,245,582.5,,
7,Ashton Kuhlmann,M,SBD,MR-V,125,Raw,2008,,USA,MI,116.6,182.5,-197.5,-197.5,182.5,150,160,-172.5,160,-235,235,-260,235,577.5,,
8,Darrian Turner,M,SBD,MR-V,125,Raw,2006,,USA,WI,117.2,185,-195,205,205,102.5,112.5,120,120,212.5,225,-240,225,550,,
9,Jeremiah Willingham,M,SBD,MR-V,125,Raw,2006,,USA,GA,123.1,167.5,180,-195,180,110,120,-125,120,205,215,-230,215,515,,
10,Sergio Ortiz,M,SBD,MR-V,125,Raw,2007,,USA,NE,123.5,147.5,170,185,185,110,112.5,115,115,175,195,210,210,510,,
DQ,Adrian Lopez #11,M,SBD,MR-V,125,Raw,2007,Lexington power Lifting,USA,NE,121.6,185,190,197.5,197.5,125,130,-137.5,130,-200,-212.5,-212.5,,,,
1,Gabe McNeill,M,SBD,MR-V,140,Raw,2006,,USA,NC,126.35,260,-275,-275,260,160,175,180,180,275,290,-300,290,730,,
2,Elias Diaz,M,SBD,MR-V,140,Raw,2006,,USA,WI,127.5,272.5,287.5,290,290,140,157.5,162.5,162.5,250,-272.5,-290,250,702.5,,
3,Wyatt Stellrecht,M,SBD,MR-V,140,Raw,2006,,USA,WI,129.15,267.5,275,-282.5,275,142.5,147.5,-152.5,147.5,250,255,-282.5,255,677.5,,
4,Braxton Smith,M,SBD,MR-V,140,Raw,2007,,USA,WI,135,225,240,255,255,112.5,122.5,130,130,225,235,-257.5,235,620,,
5,Hunter Davis,M,SBD,MR-V,140,Raw,2007,,USA,WI,137.3,212.5,225,-235,225,107.5,115,120,120,225,235,245,245,590,,
6,Gavin Downs,M,SBD,MR-V,140,Raw,2005,Neenah Powerlifting,USA,WI,136.65,210,220,227.5,227.5,87.5,95,-100,95,217.5,227.5,240,240,562.5,,
7,Gabe Jenson,M,SBD,MR-V,140,Raw,2005,Elk Mound High School Powerlifting,USA,WI,131.7,177.5,185,195,195,105,107.5,112.5,112.5,212.5,222.5,-235,222.5,530,,
8,Pearson Carter,M,SBD,MR-V,140,Raw,2006,,USA,KS,138.9,190,195,-197.5,195,95,100,105,105,225,227.5,-232.5,227.5,527.5,,
1,Tyren Holmes,M,SBD,MR-V,140+,Raw,2006,,USA,KS,184.55,300,-310,-310,300,170,177.5,-185,177.5,240,252.5,-265,252.5,730,,
2,Miguel Castellanos,M,SBD,MR-V,140+,Raw,2006,Lexington power Lifting,USA,NE,173.55,205,217.5,227.5,227.5,170,180,-187.5,180,242.5,260,277.5,277.5,685,,
3,Jelani Payne,M,SBD,MR-V,140+,Raw,2006,,USA,WI,168.3,260,275,290,290,160,172.5,-182.5,172.5,-195,212.5,220,220,682.5,,
4,Hunter Vennevy,M,SBD,MR-V,140+,Raw,2006,,USA,MI,148.85,225,245,260,260,137.5,145,152.5,152.5,220,242.5,-250,242.5,655,,
5,Robert Mash,M,SBD,MR-V,140+,Raw,2006,,USA,TX,175.8,172.5,205,-215,205,-110,120,137.5,137.5,150,-185,185,185,527.5,,
1,Izek Keodouangdy,M,SBD,MR-V,67.5,Raw,2006,,USA,FL,67.1,200,215,220,220,125,132.5,137.5,137.5,250,262.5,270,270,627.5,,
2,Matthew Lopez #7,M,SBD,MR-V,67.5,Raw,2006,,USA,TX,67,205,215,222.5,222.5,130,137.5,142.5,142.5,225,237.5,242.5,242.5,607.5,,
3,Alexander Palmisano,M,SBD,MR-V,67.5,Raw,2006,,USA,TX,66.7,190,210,215,215,130,137.5,143,143,215,227.5,-232.5,227.5,585.5,,
4,Ben Tran,M,SBD,MR-V,67.5,Raw,2008,,USA,MA,66.2,207.5,217.5,222.5,222.5,102.5,110,120,120,217.5,237.5,-252.5,237.5,580,,
5,Eric Chen #1,M,SBD,MR-V,67.5,Raw,2005,,USA,IL,66.5,200,210,215,215,115,122.5,130,130,215,230,-245,230,575,,
6,Garrett Rogers,M,SBD,MR-V,67.5,Raw,2006,,USA,DE,66.4,182.5,187.5,190,190,115,120,-122.5,120,250,262.5,-272.5,262.5,572.5,,
7,Christopher Pinto,M,SBD,MR-V,67.5,Raw,2007,St. John's Prep Powerlifting,USA,MA,65.1,180,190,195,195,122.5,-132.5,-132.5,122.5,212.5,220,-227.5,220,537.5,,
8,Josh Lawson #1,M,SBD,MR-V,67.5,Raw,2005,,USA,TX,65,180,-192.5,-192.5,180,135,142.5,145,145,185,200,207.5,207.5,532.5,,
9,Ashton Vallner,M,SBD,MR-V,67.5,Raw,2007,,USA,WI,67,175,-187.5,187.5,187.5,115,125,-130,125,205,217.5,220,220,532.5,,
10,Byron Moore,M,SBD,MR-V,67.5,Raw,2007,,USA,TX,66.8,177.5,190,195,195,92.5,100,105,105,205,215,230,230,530,,
11,Dominic Brewer,M,SBD,MR-V,67.5,Raw,2007,,USA,KS,66.1,205,210,217.5,217.5,97.5,102.5,-105,102.5,190,197.5,207.5,207.5,527.5,,
12,Rocco Smaldone,M,SBD,MR-V,67.5,Raw,2006,,USA,CO,63.8,190,-192.5,195,195,-115,115,-120,115,205,-210,212.5,212.5,522.5,,
13,Carson Derringer,M,SBD,MR-V,67.5,Raw,2005,,USA,WI,66.5,175,197.5,202.5,202.5,82.5,95,100,100,185,210,-220,210,512.5,,
14,Luka Garcia,M,SBD,MR-V,67.5,Raw,2007,,USA,FL,67.2,140,155,167.5,167.5,95,100,-107.5,100,205,227.5,242.5,242.5,510,,
15,James McElroy,M,SBD,MR-V,67.5,Raw,2007,,USA,WI,66.6,170,177.5,-185,177.5,100,105,110,110,195,-207.5,212.5,212.5,500,,
16,Brayden Hertik,M,SBD,MR-V,67.5,Raw,2007,,USA,GA,67.3,212.5,-220,-220,212.5,105,-112.5,-112.5,105,175,182.5,-185,182.5,500,,
17,Kevin Phan,M,SBD,MR-V,67.5,Raw,2007,,USA,GA,66.9,175,187.5,-195,187.5,87.5,95,-100,95,215,-230,-230,215,497.5,,
18,Wyatt Hosick,M,SBD,MR-V,67.5,Raw,2005,Lexington power Lifting,USA,NE,65.8,165,175,-177.5,175,102.5,-110,-110,102.5,192.5,202.5,215,215,492.5,,
19,Gael Rivas Garcia,M,SBD,MR-V,67.5,Raw,2007,,USA,GA,66.3,-167.5,175,182.5,182.5,107.5,112.5,117.5,117.5,175,-190,190,190,490,,
20,Wyatt Wilson,M,SBD,MR-V,67.5,Raw,2005,,USA,AL,65.6,-172.5,172.5,187.5,187.5,87.5,92.5,-97.5,92.5,185,197.5,207.5,207.5,487.5,,
21,Will Heineman,M,SBD,MR-V,67.5,Raw,2005,,USA,SD,66.9,190,-195,-195,190,85,87.5,-92.5,87.5,207.5,-217.5,-217.5,207.5,485,,
22,Christopher Martinez,M,SBD,MR-V,67.5,Raw,2006,,USA,MD,65.9,150,165,-167.5,165,82.5,92.5,97.5,97.5,200,210,-230,210,472.5,,
23,Seth Hudson,M,SBD,MR-V,67.5,Raw,2006,,USA,PA,66.8,145,160,175,175,92.5,97.5,102.5,102.5,165,182.5,195,195,472.5,,
24,Brennan Tsai,M,SBD,MR-V,67.5,Raw,2007,,USA,IL,62.7,170,180,187.5,187.5,87.5,95,102.5,102.5,155,167.5,177.5,177.5,467.5,,
25,Dayne Laney,M,SBD,MR-V,67.5,Raw,2006,Elk Mound High School Powerlifting,USA,WI,66,150,155,160,160,100,,,100,205,-220,-220,205,465,,
26,Ethan Trivette,M,SBD,MR-V,67.5,Raw,2005,,USA,FL,65.7,142.5,-152.5,160,160,95,100,-102.5,100,180,190,200,200,460,,
27,CJ Wallace,M,SBD,MR-V,67.5,Raw,2006,,USA,NJ,67.1,140,150,-162.5,150,105,110,-112.5,110,175,180,195,195,455,,
28,Sam Boesch,M,SBD,MR-V,67.5,Raw,2006,,USA,IL,64.85,145,155,-165,155,85,-87.5,-87.5,85,197.5,207.5,-220,207.5,447.5,,
29,Steven Severson,M,SBD,MR-V,67.5,Raw,2006,Elk Mound High School Powerlifting,USA,WI,66.1,145,150,152.5,152.5,82.5,87.5,90,90,200,-215,-227.5,200,442.5,,
30,Ryan Tam,M,SBD,MR-V,67.5,Raw,2007,,USA,IL,66.15,132.5,145,150,150,90,97.5,102.5,102.5,165,180,190,190,442.5,,
31,Kevin Ingoldsby,M,SBD,MR-V,67.5,Raw,2007,,USA,FL,66.75,147.5,152.5,-157.5,152.5,80,87.5,90,90,180,190,200,200,442.5,,
32,Jomar Perez,M,SBD,MR-V,67.5,Raw,2006,,USA,MO,65.95,140,145,-152.5,145,80,85,90,90,190,200,-207.5,200,435,,
33,Jaden Cartwright,M,SBD,MR-V,67.5,Raw,2006,,USA,MD,64.9,-125,-125,145,145,70,77.5,82.5,82.5,175,185,195,195,422.5,,
34,Rivaldo Vargas-Ramirez,M,SBD,MR-V,67.5,Raw,2006,Lexington power Lifting,USA,NE,66.3,142.5,147.5,-150,147.5,82.5,85,87.5,87.5,170,180,185,185,420,,
35,Joseph Coval,M,SBD,MR-V,67.5,Raw,2008,,USA,WI,64.35,142.5,152.5,-160,152.5,85,90,-95,90,175,-182.5,-182.5,175,417.5,,
36,Caden DeBuys,M,SBD,MR-V,67.5,Raw,2005,,USA,TX,66.15,140,150,155,155,77.5,-82.5,-82.5,77.5,170,177.5,185,185,417.5,,
37,Harry Wilson,M,SBD,MR-V,67.5,Raw,2007,,USA,MA,66.4,122.5,-127.5,127.5,127.5,100,107.5,112.5,112.5,147.5,162.5,172.5,172.5,412.5,,
38,Adrian Lopez #12,M,SBD,MR-V,67.5,Raw,2006,,USA,NE,66.45,152.5,-160,-160,152.5,75,-77.5,77.5,77.5,167.5,175,182.5,182.5,412.5,,
39,Charles Connor Keegan,M,SBD,MR-V,67.5,Raw,2006,,USA,MA,66.8,122.5,135,145,145,-85,85,92.5,92.5,155,165,172.5,172.5,410,,
40,Leandro Avila,M,SBD,MR-V,67.5,Raw,2007,,USA,FL,65.2,115,125,135,135,97.5,105,-107.5,105,140,150,167.5,167.5,407.5,,
41,Noel Mares,M,SBD,MR-V,67.5,Raw,2006,,USA,TX,66.3,152.5,-165,165,165,65,75,-77.5,75,150,165,167.5,167.5,407.5,,
42,Jack Gaudet,M,SBD,MR-V,67.5,Raw,2006,,USA,LA,65.1,125,137.5,145,145,82.5,87.5,-92.5,87.5,160,172.5,-177.5,172.5,405,,
43,Daimion Lewis,M,SBD,MR-V,67.5,Raw,2006,,USA,WI,66,125,130,-135,130,80,85,-87.5,85,170,177.5,185,185,400,,
44,Landon Decuir,M,SBD,MR-V,67.5,Raw,2007,,USA,LA,66.5,135,147.5,-160,147.5,92.5,97.5,-102.5,97.5,140,155,-162.5,155,400,,
45,Nathan Carrier,M,SBD,MR-V,67.5,Raw,2006,,USA,MI,64.6,-147.5,147.5,152.5,152.5,87.5,92.5,-95,92.5,150,-160,-162.5,150,395,,
46,Brandon Logan,M,SBD,MR-V,67.5,Raw,2007,,USA,WY,65,135,142.5,152.5,152.5,82.5,90,-97.5,90,137.5,147.5,152.5,152.5,395,,
47,Chase Fasciano,M,SBD,MR-V,67.5,Raw,2007,St. John's Prep Powerlifting,USA,MA,63.55,120,132.5,-142.5,132.5,85,-97.5,-97.5,85,155,162.5,172.5,172.5,390,,
48,Aiden Whybrew,M,SBD,MR-V,67.5,Raw,2006,CROS-LEX POWERLIFTING CLUB,USA,MI,67,125,137.5,-142.5,137.5,-60,60,-65,60,180,192.5,-210,192.5,390,,
49,Carlos Le,M,SBD,MR-V,67.5,Raw,2007,,USA,TX,66.1,130,137.5,142.5,142.5,-85,85,-87.5,85,150,157.5,-165,157.5,385,,
50,Garrett Bell,M,SBD,MR-V,67.5,Raw,2005,,USA,TX,65.4,-135,135,140,140,70,77.5,-85,77.5,152.5,165,-172.5,165,382.5,,
51,Darren Grubb,M,SBD,MR-V,67.5,Raw,2009,,USA,IN,67,-112.5,115,122.5,122.5,-87.5,92.5,-97.5,92.5,165,-175,-175,165,380,,
52,Benson Truong,M,SBD,MR-V,67.5,Raw,2009,Boston Latin Powerlifting,USA,MA,64.4,132.5,140,145,145,72.5,77.5,-82.5,77.5,142.5,-152.5,152.5,152.5,375,,
53,Kyler Ellison,M,SBD,MR-V,67.5,Raw,2007,,USA,IN,65.7,132.5,-140,-140,132.5,90,95,-97.5,95,140,-147.5,147.5,147.5,375,,
54,Jaime Rodriguez,M,SBD,MR-V,67.5,Raw,2007,,USA,NE,67.3,-125,125,-127.5,125,75,-77.5,-77.5,75,-170,-170,170,170,370,,
55,Levi Wood,M,SBD,MR-V,67.5,Raw,2005,,USA,GA,61.9,115,125,135,135,-80,85,90,90,122.5,132.5,142.5,142.5,367.5,,
56,Ethan Oh,M,SBD,MR-V,67.5,Raw,2007,,USA,MA,65.5,135,-142.5,-145,135,80,-87.5,87.5,87.5,120,127.5,-137.5,127.5,350,,
57,Ryan Easley,M,SBD,MR-V,67.5,Raw,2005,,USA,TX,65.6,-100,-110,110,110,55,65,-70,65,160,-175,175,175,350,,
58,Patrick Moe,M,SBD,MR-V,67.5,Raw,2007,,USA,LA,64.5,102.5,112.5,117.5,117.5,65,70,-77.5,70,142.5,155,-160,155,342.5,,
59,Jeffrey Dunlap,M,SBD,MR-V,67.5,Raw,2007,,USA,WI,66.4,-112.5,117.5,125,125,65,72.5,-77.5,72.5,130,142.5,-157.5,142.5,340,,
60,Aaron Plakas,M,SBD,MR-V,67.5,Raw,2008,,USA,TX,65,110,115,117.5,117.5,55,-60,60,60,132.5,145,155,155,332.5,,
61,Alex Ahmed,M,SBD,MR-V,67.5,Raw,2006,Boston Latin Powerlifting,USA,MA,66.3,110,115,120,120,65,70,-72.5,70,127.5,135,142.5,142.5,332.5,,
62,Anthony Candella,M,SBD,MR-V,67.5,Raw,2006,CBA Colts Powerlifting,USA,NJ,66.6,100,107.5,-112.5,107.5,75,-80,-80,75,132.5,140,-145,140,322.5,,
63,Brandon Clayton,M,SBD,MR-V,67.5,Raw,2007,CBA Colts Powerlifting,USA,NJ,62.2,100,110,-115,110,47.5,52.5,-55,52.5,155,-162.5,-162.5,155,317.5,,
DQ,Michael Malia,M,SBD,MR-V,67.5,Raw,2008,,USA,NJ,66.4,-147.5,-150,-150,,92.5,95,-97.5,95,-175,175,182.5,182.5,,,
1,Dylan Albert,M,SBD,MR-V,82.5,Raw,2004,,USA,LA,81,250,267.5,-280,267.5,135,140,145,145,250,265,272.5,272.5,685,,
2,Tory Fasciano,M,SBD,MR-V,82.5,Raw,2005,St. John's Prep Powerlifting,USA,MA,81.2,222.5,235,242.5,242.5,150,157.5,160,160,245,257.5,262.5,262.5,665,,
3,Chislon Njang,M,SBD,MR-V,82.5,Raw,2006,,USA,MD,80.4,215,220,227.5,227.5,132.5,-145,145,145,262.5,275,-282.5,275,647.5,,
4,Sammy Strauch,M,SBD,MR-V,82.5,Raw,2007,,USA,CO,81.2,230,245,252.5,252.5,117.5,125,130,130,235,250,260,260,642.5,,
5,Derek Sun,M,SBD,MR-V,82.5,Raw,2006,,USA,MA,81.7,220,-227.5,227.5,227.5,130,135,140,140,235,245,255,255,622.5,,
6,Richard Stevens #1,M,SBD,MR-V,82.5,Raw,2007,,USA,VA,80.9,190,210,222.5,222.5,135,150,-180,150,200,220,240,240,612.5,,
7,Sky Rong,M,SBD,MR-V,82.5,Raw,2005,,USA,KS,81.6,200,215,-225,215,137.5,147.5,-150,147.5,225,-247.5,247.5,247.5,610,,
8,Tyler Collins #5,M,SBD,MR-V,82.5,Raw,2006,,USA,IN,81.8,217.5,225,-237.5,225,120,127.5,130,130,240,255,-270,255,610,,
9,Trenten Ardoin,M,SBD,MR-V,82.5,Raw,2007,,USA,LA,81.4,192.5,210,220,220,110,125,137.5,137.5,227.5,250,-272.5,250,607.5,,
10,Robert Turner,M,SBD,MR-V,82.5,Raw,2005,,USA,LA,81.2,207.5,217.5,-225,217.5,115,127.5,137.5,137.5,235,245,-257.5,245,600,,
11,Joseph Knepper,M,SBD,MR-V,82.5,Raw,2006,,USA,PA,81.8,180,195,207.5,207.5,115,120,127.5,127.5,230,250,262.5,262.5,597.5,,
12,Benjamin Heilig,M,SBD,MR-V,82.5,Raw,2005,,USA,MI,82.2,210,217.5,227.5,227.5,110,115,120,120,235,250,-265,250,597.5,,
13,Aaron Poetzel,M,SBD,MR-V,82.5,Raw,2006,,USA,IL,80.7,202.5,212.5,-217.5,212.5,147.5,-157.5,-165,147.5,220,235,-250,235,595,,
14,Kaleb Miller #3,M,SBD,MR-V,82.5,Raw,2007,,USA,NE,80.6,220,232.5,245,245,-102.5,102.5,115,115,200,217.5,230,230,590,,
15,Travis Kim,M,SBD,MR-V,82.5,Raw,2007,,USA,CA,81.6,-205,215,-222.5,215,125,130,-132.5,130,245,-252.5,-255,245,590,,
16,Joe Fagan,M,SBD,MR-V,82.5,Raw,2006,,USA,PA,79.25,182.5,197.5,-210,197.5,110,120,127.5,127.5,227.5,245,262.5,262.5,587.5,,
17,Steven Austermann,M,SBD,MR-V,82.5,Raw,2005,,USA,CO,80.2,195,207.5,-215,207.5,125,132.5,135,135,217.5,230,237.5,237.5,580,,
18,Sohan Lloyd,M,SBD,MR-V,82.5,Raw,2005,,USA,FL,80.2,180,-187.5,190,190,135,142.5,-147.5,142.5,210,227.5,237.5,237.5,570,,
19,Santiago Sanchez,M,SBD,MR-V,82.5,Raw,2006,,USA,TX,81.55,210,-217.5,-217.5,210,120,127.5,-135,127.5,225,232.5,-235,232.5,570,,
20,Shawn Wilson,M,SBD,MR-V,82.5,Raw,2007,,USA,GA,81.4,182.5,197.5,-205,197.5,-102.5,105,110,110,230,250,260,260,567.5,,
21,Adrian Morell,M,SBD,MR-V,82.5,Raw,2006,,USA,IL,81.4,167.5,180,187.5,187.5,-130,140,145,145,212.5,222.5,230,230,562.5,,
22,Mason Buckner,M,SBD,MR-V,82.5,Raw,2005,,USA,TN,81.9,202.5,-217.5,217.5,217.5,130,137.5,-140,137.5,190,205,-215,205,560,,
23,Taylor Thomas #9,M,SBD,MR-V,82.5,Raw,2006,,USA,NC,82.4,200,215,-217.5,215,107.5,115,-125,115,217.5,225,-227.5,225,555,,
24,Brendan Murphy #5,M,SBD,MR-V,82.5,Raw,2007,,USA,PA,80.5,170,190,202.5,202.5,105,115,122.5,122.5,205,227.5,-242.5,227.5,552.5,,
25,Dylan Paul,M,SBD,MR-V,82.5,Raw,2005,,USA,NY,79.4,180,195,-200,195,112.5,-120,-125,112.5,240,-252.5,-257.5,240,547.5,,
26,Drayden Hannan,M,SBD,MR-V,82.5,Raw,2007,Neenah Powerlifting,USA,WI,79.7,190,205,-212.5,205,112.5,117.5,-122.5,117.5,215,225,-240,225,547.5,,
27,Jackson Hengst,M,SBD,MR-V,82.5,Raw,2006,,USA,CO,77.65,180,192.5,197.5,197.5,110,115,120,120,205,215,227.5,227.5,545,,
28,Caleb Wiegert,M,SBD,MR-V,82.5,Raw,2008,,USA,WI,80.9,185,195,200,200,105,110,115,115,220,230,-245,230,545,,
29,Blaine Parsons,M,SBD,MR-V,82.5,Raw,2006,,USA,LA,81.5,182.5,197.5,-205,197.5,92.5,100,-107.5,100,247.5,-265,-265,247.5,545,,
30,David Lopez #15,M,SBD,MR-V,82.5,Raw,2006,,USA,CA,80.3,170,185,192.5,192.5,100,105,-110,105,215,232.5,240,240,537.5,,
31,Andy Nguyen,M,SBD,MR-V,82.5,Raw,2006,,USA,OK,82.5,187.5,195,-225,195,112.5,117.5,-122.5,117.5,220,-225,-225,220,532.5,,
32,Ethan Spry,M,SBD,MR-V,82.5,Raw,2006,,USA,GA,82.3,175,185,187.5,187.5,100,107.5,110,110,215,225,230,230,527.5,,
33,Nick Shelsta,M,SBD,MR-V,82.5,Raw,2007,,USA,IL,80.5,180,192.5,200,200,95,-102.5,-102.5,95,205,217.5,227.5,227.5,522.5,,
34,Sammy Irelan,M,SBD,MR-V,82.5,Raw,2005,,USA,IN,81.65,177.5,185,190,190,107.5,110,-115,110,200,212.5,217.5,217.5,517.5,,
35,Aiden Brown,M,SBD,MR-V,82.5,Raw,2006,Cajun Prep,USA,LA,80.3,170,-185,185,185,100,-110,110,110,200,220,-227.5,220,515,,
36,Connor Scott,M,SBD,MR-V,82.5,Raw,2005,,USA,GA,81.55,175,185,-192.5,185,120,125,130,130,190,200,-210,200,515,,
37,Julian Tavarez,M,SBD,MR-V,82.5,Raw,2007,St. John's Prep Powerlifting,USA,MA,81.8,172.5,-182.5,182.5,182.5,95,102.5,-107.5,102.5,215,225,230,230,515,,
38,Hongfan Deng,M,SBD,MR-V,82.5,Raw,2007,,USA,CA,77.7,185,195,,195,97.5,102.5,107.5,107.5,195,207.5,-220,207.5,510,,
39,Braeden Bessinger,M,SBD,MR-V,82.5,Raw,2007,,USA,MI,81.75,-160,170,-182.5,170,115,-122.5,-122.5,115,215,225,-235,225,510,,
40,Brayden Brown,M,SBD,MR-V,82.5,Raw,2007,,USA,MO,80.9,165,175,180,180,115,122.5,-127.5,122.5,187.5,190,205,205,507.5,,
41,Hector Arguelles-Del Rio Jr,M,SBD,MR-V,82.5,Raw,2007,,USA,KS,81.4,177.5,-187.5,-187.5,177.5,100,105,110,110,200,215,220,220,507.5,,
42,Reese Butler,M,SBD,MR-V,82.5,Raw,2006,,USA,ME,79.4,160,170,177.5,177.5,92.5,100,105,105,205,217.5,222.5,222.5,505,,
43,Jacob Schwab,M,SBD,MR-V,82.5,Raw,2006,,USA,WI,78.5,165,175,185,185,80,87.5,92.5,92.5,212.5,225,-237.5,225,502.5,,
44,Dylan Mitchell,M,SBD,MR-V,82.5,Raw,2006,,USA,NJ,82,177.5,187.5,190,190,95,-100,-100,95,205,215,217.5,217.5,502.5,,
45,Tucker Corbin,M,SBD,MR-V,82.5,Raw,2006,,USA,MA,78.75,180,-190,192.5,192.5,100,105,107.5,107.5,200,-217.5,-217.5,200,500,,
46,Finnegan Brucker,M,SBD,MR-V,82.5,Raw,2006,,USA,ME,78.8,165,175,185,185,95,105,110,110,-185,185,205,205,500,,
47,Dillon Foley,M,SBD,MR-V,82.5,Raw,2007,,USA,NJ,79.6,165,-175,180,180,87.5,95,100,100,205,215,220,220,500,,
48,Graham Boyle,M,SBD,MR-V,82.5,Raw,2005,,USA,GA,80.9,182.5,-192.5,-192.5,182.5,110,117.5,-125,117.5,190,200,-205,200,500,,
49,Shiven Lahane,M,SBD,MR-V,82.5,Raw,2007,,USA,CA,80.2,-162.5,-172.5,172.5,172.5,102.5,110,112.5,112.5,185,-207.5,210,210,495,,
50,Valen Amarasingham,M,SBD,MR-V,82.5,Raw,2007,,USA,TX,81.1,165,172.5,180,180,95,100,,100,215,-220,-222.5,215,495,,
51,Christian Le,M,SBD,MR-V,82.5,Raw,2007,Boston Latin Powerlifting,USA,MA,80.7,172.5,185,192.5,192.5,85,92.5,97.5,97.5,185,197.5,202.5,202.5,492.5,,
52,Jonny Vasquez,M,SBD,MR-V,82.5,Raw,2007,Lexington power Lifting,USA,NE,80.3,165,-175,-175,165,100,-105,-105,100,210,-222.5,225,225,490,,
53,Noah Jackson,M,SBD,MR-V,82.5,Raw,2007,CROS-LEX POWERLIFTING CLUB,USA,MI,81,165,177.5,-190,177.5,102.5,112.5,-125,112.5,200,-220,-227.5,200,490,,
54,Hudson Faust,M,SBD,MR-V,82.5,Raw,2008,,USA,TX,81,160,167.5,-175,167.5,102.5,110,115,115,190,200,207.5,207.5,490,,
55,Jackson Morrow,M,SBD,MR-V,82.5,Raw,2005,,USA,TX,81.3,175,185,192.5,192.5,92.5,100,-102.5,100,182.5,195,-207.5,195,487.5,,
56,Edwin Roberts,M,SBD,MR-V,82.5,Raw,2006,Cajun Prep,USA,LA,80.75,160,172.5,182.5,182.5,95,105,110,110,175,192.5,-205,192.5,485,,
57,Surya Jalapati,M,SBD,MR-V,82.5,Raw,2006,,USA,TX,81.5,160,165,175,175,75,80,-87.5,80,215,-227.5,230,230,485,,
58,Sam Stringer,M,SBD,MR-V,82.5,Raw,2005,,USA,AR,80.4,157.5,170,180,180,100,105,110,110,175,190,-200,190,480,,
59,John Kaloutas,M,SBD,MR-V,82.5,Raw,2008,,USA,MA,81.8,160,167.5,175,175,97.5,105,110,110,170,177.5,182.5,182.5,467.5,,
60,Hayden Jones #4,M,SBD,MR-V,82.5,Raw,2006,,USA,TN,80.5,157.5,160,-162.5,160,105,110,-120,110,-182.5,195,-207.5,195,465,,
61,Nolan Schmidt,M,SBD,MR-V,82.5,Raw,2005,,USA,WI,81.55,150,162.5,-170,162.5,102.5,112.5,117.5,117.5,170,185,-205,185,465,,
62,Tucker Gillett,M,SBD,MR-V,82.5,Raw,2006,,USA,IL,77.2,-142.5,-142.5,142.5,142.5,97.5,-102.5,-102.5,97.5,215,222.5,-225,222.5,462.5,,
63,Tristan Whiteley,M,SBD,MR-V,82.5,Raw,2008,,USA,TX,80.55,142.5,152.5,162.5,162.5,-100,110,-117.5,110,172.5,180,190,190,462.5,,
64,Jacob Courtney,M,SBD,MR-V,82.5,Raw,2006,,USA,IA,80.35,150,160,167.5,167.5,92.5,97.5,-100,97.5,180,190,195,195,460,,
65,Alex Lam #2,M,SBD,MR-V,82.5,Raw,2006,Boston Latin Powerlifting,USA,MA,80.7,150,157.5,160,160,82.5,87.5,90,90,187.5,195,-200,195,445,,
DQ,Evan Lampkin,M,SBD,MR-V,82.5,Raw,2007,,USA,NC,79.4,205,-217.5,-217.5,205,125,-130,-130,125,-220,-220,-220,,,,
