Division,WeightClassKg,Place,Name,Team,BodyweightKg,Best3SquatKg,Best3BenchKg,Best3DeadliftKg,TotalKg,Equipment,Event,Sex,BirthDate
Boys,51.71,1,Victor Roberson,Victoria East,51.35,156.49,90.72,154.22,401.43,Unlimited,SBD,M,
Boys,51.71,2,Von Barrera,Odem,48.99,106.59,61.23,90.72,258.55,Unlimited,SBD,M,
Boys,51.71,DQ,Luis Ramírez,Aransas Pass,50.71,,,,,Unlimited,SBD,M,
Boys,55.79,1,Shel Htoo,Port Lavaca Calhoun,55.25,174.63,113.4,183.7,471.74,Unlimited,SBD,M,
Boys,55.79,2,Joe Alarcon,Victoria East,54.88,172.37,104.33,183.7,460.4,Unlimited,SBD,M,
Boys,55.79,3,Michael Muniz,Goliad,54.88,161.03,92.99,167.83,421.84,Unlimited,SBD,M,
Boys,55.79,4,Jeriah Cisneros,Odem,55.79,161.03,92.99,151.95,405.97,Unlimited,SBD,M,
Boys,55.79,5,Noah Blevins,Goliad,54.52,147.42,88.45,147.42,383.29,Unlimited,SBD,M,
Boys,55.79,DQ,Santos Morales,Robstown,55.79,,,,,Unlimited,SBD,M,
Boys,55.79,DQ,Phoenix Luna,Somerset Brooks Academy,55.79,,,,,Unlimited,SBD,M,
Boys,55.79,DQ,Jessie Hernandez,Robstown,53.07,,,,,Unlimited,SBD,M,
Boys,59.87,1,Alex Tafolla,Port Lavaca Calhoun,59.87,156.49,92.99,208.65,458.13,Unlimited,SBD,M,
Boys,59.87,2,Shalom Vega,Mathis,59.33,142.88,99.79,154.22,396.89,Unlimited,SBD,M,
Boys,59.87,3,Zaydin Espinoza,Mathis,56.7,142.88,77.11,145.15,365.14,Unlimited,SBD,M,
Boys,59.87,4,Brennan Keese,Skidmore-Tynan,58.97,127.01,58.97,136.08,322.05,Unlimited,SBD,M,
Boys,59.87,5,Blayne Carroll,Pettus,59.69,115.67,79.38,122.47,317.51,Unlimited,SBD,M,
Boys,59.87,6,Elyjah Estrada-Nelson,Somerset Brooks Academy,58.33,113.4,58.97,140.61,312.98,Unlimited,SBD,M,
Boys,59.87,7,Jesus Brito,Aransas Pass,59.6,111.13,70.31,120.2,301.64,Unlimited,SBD,M,
Boys,59.87,8,Juan Garza,Aransas Pass,59.15,111.13,68.04,120.2,299.37,Unlimited,SBD,M,
Boys,59.87,9,Gabriel Aguilar,Goliad,56.7,115.67,52.16,129.27,297.1,Unlimited,SBD,M,
Boys,59.87,DQ,Matthew Rodriguez,Victoria West,59.87,,,,,Unlimited,SBD,M,
Boys,59.87,DQ,Stran Gaitan,Cuero,59.87,,,,,Unlimited,SBD,M,
Boys,59.87,DQ,J-Den Martinez,Mathis,59.33,147.42,,,,Unlimited,SBD,M,
Boys,67.13,1,Draven Garza,Victoria East,65.86,233.6,149.69,229.06,612.35,Unlimited,SBD,M,
Boys,67.13,2,Antonio Pena,Ingleside,66.95,192.78,129.27,190.51,512.56,Unlimited,SBD,M,
Boys,67.13,3,Antonio Guzman,Victoria East,65.95,183.7,115.67,197.31,496.68,Unlimited,SBD,M,
Boys,67.13,4,Davy Rodriguez,Mathis,66.04,165.56,117.93,167.83,451.32,Unlimited,SBD,M,
Boys,67.13,5,Ricardo Ruiz,Robstown,66.22,165.56,117.93,165.56,449.06,Unlimited,SBD,M,
Boys,67.13,6,Melisio Garcia,Pettus,64.41,149.69,95.25,188.24,433.18,Unlimited,SBD,M,
Boys,67.13,7,Carson Lopez,Ingleside,64.5,158.76,83.91,142.88,385.55,Unlimited,SBD,M,
Boys,67.13,8,Ryan Salinas,Odem,63.59,142.88,95.25,131.54,369.68,Unlimited,SBD,M,
Boys,67.13,9,Isaac Romero,Odem,63.23,142.88,90.72,129.27,362.87,Unlimited,SBD,M,
Boys,67.13,10,Xavier Garcia,Corpus Christi West Oso,66.59,138.35,70.31,154.22,362.87,Unlimited,SBD,M,
Boys,67.13,11,Connor Serece,Cuero,65.59,115.67,90.72,136.08,342.46,Unlimited,SBD,M,
Boys,67.13,12,Johnny Ramirez,Ingleside,61.23,104.33,63.5,108.86,276.69,Unlimited,SBD,M,
Boys,67.13,DQ,Exzavier Ybarra,Mathis,67.13,,,,,Unlimited,SBD,M,
Boys,67.13,DQ,Caden Chance,Corpus Christi West Oso,67.13,,,,,Unlimited,SBD,M,
Boys,67.13,DQ,Carson Davis,Ingleside,67.13,,,,,Unlimited,SBD,M,
Boys,67.13,DQ,Josh Arroyos,Beeville Jones,67.04,,,,,Unlimited,SBD,M,
Boys,67.13,DQ,Eli Rodriguez,Port Lavaca Calhoun,66.59,,,,,Unlimited,SBD,M,
Boys,67.13,DQ,Bryce Rey,Pettus,62.69,,,,,Unlimited,SBD,M,
Boys,74.84,1,Trevor Dykes,Port Lavaca Calhoun,74.75,235.87,142.88,242.67,621.42,Unlimited,SBD,M,
Boys,74.84,2,Andy Rico,Port Lavaca Calhoun,70.03,229.06,151.95,224.53,605.55,Unlimited,SBD,M,
Boys,74.84,3,Aaron Acosta,Mathis,74.12,231.33,151.95,222.26,605.55,Unlimited,SBD,M,
Boys,74.84,4,Angel Guerrero,Port Lavaca Calhoun,73.94,213.19,136.08,249.48,598.74,Unlimited,SBD,M,
Boys,74.84,5,Itzac Cruz,Odem,72.39,192.78,151.95,219.99,564.72,Unlimited,SBD,M,
Boys,74.84,6,Carlon Helms,Victoria East,72.39,215.46,111.13,215.46,542.04,Unlimited,SBD,M,
Boys,74.84,7,Randy Velasquez,Robstown,68.86,206.38,161.03,170.1,537.51,Unlimited,SBD,M,
Boys,74.84,8,Aiden Martinez,Odem,72.67,183.7,120.2,183.7,487.61,Unlimited,SBD,M,
Boys,74.84,9,Philip Alm,Cuero,71.49,170.1,127.01,170.1,467.2,Unlimited,SBD,M,
Boys,74.84,10,Anthonie Cordova,Ingleside,71.67,165.56,102.06,183.7,451.32,Unlimited,SBD,M,
Boys,74.84,11,Henry Schultz,Aransas Pass,74.39,165.56,106.59,170.1,442.25,Unlimited,SBD,M,
Boys,74.84,12,Israel Gamez,Pettus,74.21,163.29,106.59,156.49,426.38,Unlimited,SBD,M,
Boys,74.84,13,Matthew Hernandez,Pettus,69.22,165.56,97.52,147.42,410.5,Unlimited,SBD,M,
Boys,74.84,14,Kalob Arellano,Robstown,71.4,142.88,102.06,156.49,401.43,Unlimited,SBD,M,
Boys,74.84,15,Aaron Posada,Victoria West,67.22,142.88,111.13,142.88,396.89,Unlimited,SBD,M,
Boys,74.84,DQ,Duke Bernal,Mathis,74.84,,,,,Unlimited,SBD,M,
Boys,74.84,DQ,Mattison Ferrell,Ingleside,74.84,,,,,Unlimited,SBD,M,
Boys,74.84,DQ,Marcus Barron,Ingleside,74.84,,,,,Unlimited,SBD,M,
Boys,74.84,DQ,Connor Thigpen,Cuero,74.84,,,,,Unlimited,SBD,M,
Boys,74.84,DQ,Zach Maldonado,Cuero,74.84,,,,,Unlimited,SBD,M,
Boys,82.1,1,Kason Gonzales,Victoria West,79.83,192.78,124.74,224.53,542.04,Unlimited,SBD,M,
Boys,82.1,2,Barrett Smith,Cuero,79.02,176.9,138.35,179.17,494.42,Unlimited,SBD,M,
Boys,82.1,3,Ray Espinoza,Beeville Jones,77.66,172.37,140.61,167.83,480.81,Unlimited,SBD,M,
Boys,82.1,4,Joseph Reyes,Corpus Christi West Oso,79.2,142.88,142.88,183.7,469.47,Unlimited,SBD,M,
Boys,82.1,5,Gunner McCall,Port Lavaca Calhoun,81.74,163.29,120.2,185.97,469.47,Unlimited,SBD,M,
Boys,82.1,6,Jacob Cohen,Victoria West,81.47,163.29,136.08,165.56,464.93,Unlimited,SBD,M,
Boys,82.1,7,Lucas Gaitan,Beeville Jones,77.25,192.78,113.4,154.22,460.4,Unlimited,SBD,M,
Boys,82.1,8,Trenton Bennett,Goliad,75.84,179.17,99.79,176.9,455.86,Unlimited,SBD,M,
Boys,82.1,9,Talan Shelton,Goliad,77.38,163.29,92.99,165.56,421.84,Unlimited,SBD,M,
Boys,82.1,10,Xavier Morin,Mathis,80.65,142.88,95.25,129.27,367.41,Unlimited,SBD,M,
Boys,82.1,11,John Hernandez,Victoria East,80.01,140.61,83.91,136.08,360.61,Unlimited,SBD,M,
Boys,82.1,12,Juan Aguirre,Pettus,80.29,136.08,88.45,129.27,353.8,Unlimited,SBD,M,
Boys,82.1,13,Korbin Flessner,Cuero,79.65,136.08,83.91,122.47,342.46,Unlimited,SBD,M,
Boys,82.1,14,Noah Delgado,Corpus Christi West Oso,82.1,88.45,79.38,136.08,303.91,Unlimited,SBD,M,
Boys,82.1,15,Noah Galvan,Somerset Brooks Academy,76.02,68.04,34.02,83.91,185.97,Unlimited,SBD,M,
Boys,82.1,DQ,Nathan Martinez,Somerset Brooks Academy,82.1,,,,,Unlimited,SBD,M,
Boys,82.1,DQ,Isaiah Martinez,Somerset Brooks Academy,82.1,,,,,Unlimited,SBD,M,
Boys,82.1,DQ,Ethan Ybarra,Mathis,82.1,,,,,Unlimited,SBD,M,
Boys,82.1,DQ,Isaac Rivas,Mathis,82.1,,,,,Unlimited,SBD,M,
Boys,82.1,DQ,Caleb Alvarez,Victoria East,82.1,,,,,Unlimited,SBD,M,
Boys,82.1,DQ,Georgio Garcia,Victoria West,82.1,,,,,Unlimited,SBD,M,
Boys,82.1,DQ,Bryce Nichols,Port Lavaca Calhoun,82.1,,,,,Unlimited,SBD,M,
Boys,82.1,DQ,David Estrada,Odem,82.1,,,,,Unlimited,SBD,M,
Boys,82.1,DQ,Fernando Vega,Corpus Christi West Oso,77.93,215.46,165.56,197.31,,Unlimited,SBD,M,
Boys,82.1,DQ,Draven Ayala,Corpus Christi West Oso,78.93,,,,,Unlimited,SBD,M,
Boys,89.81,1,Noah Neibrandt,Victoria West,87.27,283.5,161.03,256.28,700.8,Unlimited,SBD,M,
Boys,89.81,2,Jason Ramirez,Odem,87.27,215.46,142.88,224.53,582.87,Unlimited,SBD,M,
Boys,89.81,3,Cayden Cantu,Victoria East,87.54,226.8,122.47,224.53,573.79,Unlimited,SBD,M,
Boys,89.81,4,Christian Diaz,Victoria West,88.9,192.78,133.81,215.46,542.04,Unlimited,SBD,M,
Boys,89.81,5,Dominic Smith,Beeville Jones,89.09,188.24,124.74,185.97,498.95,Unlimited,SBD,M,
Boys,89.81,6,Gavin Flessner,Cuero,84.64,170.1,117.93,158.76,446.79,Unlimited,SBD,M,
Boys,89.81,7,Emilio Martinez,Ingleside,83.37,154.22,104.33,185.97,444.52,Unlimited,SBD,M,
Boys,89.81,8,Nathaniel Skau,Pettus,86.27,124.74,102.06,174.63,401.43,Unlimited,SBD,M,
Boys,89.81,9,Colton Gay,Victoria West,89.54,124.74,97.52,156.49,378.75,Unlimited,SBD,M,
Boys,89.81,10,Josh Nunez,Odem,88.9,129.27,79.38,142.88,351.53,Unlimited,SBD,M,
Boys,89.81,11,Leo Sanchez,Odem,87,133.81,83.91,129.27,347,Unlimited,SBD,M,
Boys,89.81,12,Manuel Alvarez,Corpus Christi West Oso,86.36,129.27,58.97,120.2,308.44,Unlimited,SBD,M,
Boys,89.81,13,Sean Roberts,Skidmore-Tynan,84.37,86.18,68.04,97.52,251.74,Unlimited,SBD,M,
Boys,89.81,14,Jarin Oatis,Victoria West,84.91,156.49,,,156.49,Unlimited,S,M,
Boys,89.81,DQ,Damion Trevino,Mathis,89.81,,,,,Unlimited,SBD,M,
Boys,89.81,DQ,Benjamin Delgado,Somerset Brooks Academy,89.81,,,,,Unlimited,SBD,M,
Boys,89.81,DQ,Ronald Ostler,Cuero,89.81,,,,,Unlimited,SBD,M,
Boys,89.81,DQ,Jonathan Lucio,Corpus Christi West Oso,89.81,,,,,Unlimited,SBD,M,
Boys,89.81,DQ,Carlos Loredo,Beeville Jones,88.09,,,,,Unlimited,SBD,M,
Boys,89.81,DQ,Robert Lucio,Corpus Christi West Oso,89.81,,,,,Unlimited,SBD,M,
Boys,89.81,DQ,Gideon Flores,Somerset Brooks Academy,88.27,206.38,,,,Unlimited,SBD,M,
Boys,99.79,1,Johnathan Perez,Cuero,97.89,204.12,136.08,183.7,523.9,Unlimited,SBD,M,
Boys,99.79,2,Torre Castillo,Port Lavaca Calhoun,93.89,161.03,138.35,199.58,498.95,Unlimited,SBD,M,
Boys,99.79,3,Troy Shelton,Goliad,98.79,185.97,120.2,185.97,492.15,Unlimited,SBD,M,
Boys,99.79,4,Connor Bienek,Victoria East,93.53,161.03,115.67,188.24,464.93,Unlimited,SBD,M,
Boys,99.79,5,Simon Pena,Mathis,93.17,181.44,113.4,165.56,460.4,Unlimited,SBD,M,
Boys,99.79,6,Noah Weghorst,Cuero,91.17,147.42,92.99,131.54,371.95,Unlimited,SBD,M,
Boys,99.79,DQ,Julian Guiteirrez,Skidmore-Tynan,90.04,,,,,Unlimited,SBD,M,
Boys,99.79,DQ,Jacob Martin,Beeville Jones,99.52,242.67,,,,Unlimited,SBD,M,
Boys,109.77,1,Ethan Sanchez,Beeville Jones,102.69,242.67,113.4,199.58,555.65,Unlimited,SBD,M,
Boys,109.77,2,Eduardo Medina,Odem,100.15,242.67,142.88,206.38,591.94,Unlimited,SBD,M,
Boys,109.77,3,Gilbert Pena,Odem,106.32,158.76,124.74,136.08,419.57,Unlimited,SBD,M,
Boys,109.77,4,Sonny Garcia,Somerset Brooks Academy,100.52,142.88,83.91,174.63,401.43,Unlimited,SBD,M,
Boys,109.77,5,Dominick Reyes,Somerset Brooks Academy,104.78,136.08,68.04,151.95,356.07,Unlimited,SBD,M,
Boys,109.77,DQ,Lucas Stillman,Ingleside,109.77,,,,,Unlimited,SBD,M,
Boys,109.77,DQ,Emilo Ortiz,Port Lavaca Calhoun,108.86,,,,,Unlimited,SBD,M,
Boys,124.74,1,Arnulfo Puga,Beeville Jones,123.51,281.23,190.51,226.8,698.53,Unlimited,SBD,M,
Boys,124.74,2,Manuel Hinojosa,Ingleside,120.93,278.96,142.88,229.06,650.91,Unlimited,SBD,M,
Boys,124.74,3,Logan McGrath,Ingleside,115.48,235.87,145.15,210.92,591.94,Unlimited,SBD,M,
Boys,124.74,4,Isaac Tello,Somerset Brooks Academy,118.57,249.48,124.74,215.46,589.67,Unlimited,SBD,M,
Boys,124.74,5,Gavin Chavez,Port Lavaca Calhoun,119.84,226.8,151.95,195.04,573.79,Unlimited,SBD,M,
Boys,124.74,6,Zachary Vela,Robstown,113.49,204.12,149.69,158.76,512.56,Unlimited,SBD,M,
Boys,124.74,7,Milton Garcia,Odem,120.84,192.78,124.74,183.7,501.22,Unlimited,SBD,M,
Boys,124.74,8,Anhony Leyba,Corpus Christi West Oso,124.74,190.51,124.74,183.7,498.95,Unlimited,SBD,M,
Boys,124.74,9,Rey Salinas,Odem,114.21,201.85,131.54,149.69,483.08,Unlimited,SBD,M,
Boys,124.74,10,Alexander Pesina,Robstown,116.12,174.63,124.74,163.29,462.66,Unlimited,SBD,M,
Boys,124.74,11,Sebastian Hernandez,Somerset Brooks Academy,124.38,158.76,68.04,170.1,396.89,Unlimited,SBD,M,
Boys,124.74,12,Marcelo Armenta,Beeville Jones,123.51,142.88,92.99,147.42,383.29,Unlimited,SBD,M,
Boys,124.74,13,Andrew Robledo,Somerset Brooks Academy,112.94,124.74,65.77,179.17,369.68,Unlimited,SBD,M,
Boys,124.74,DQ,D'Adrian Garza,Odem,116.3,,,,,Unlimited,SBD,M,
Boys,139.71,1,Jesus Martinez,Beeville Jones,134.44,226.8,165.56,215.46,607.81,Unlimited,SBD,M,
Boys,139.71,2,Alex Brown,Cuero,137.08,256.28,142.88,199.58,598.74,Unlimited,SBD,M,
Boys,139.71,3,Nate Morgan,Ingleside,125.28,188.24,138.35,192.78,519.36,Unlimited,SBD,M,
Boys,139.71,4,Zalerrion Jones,Victoria East,129.27,197.31,127.01,176.9,501.22,Unlimited,SBD,M,
Boys,139.71,5,Damien Rosales,Victoria West,125.65,204.12,131.54,149.69,485.34,Unlimited,SBD,M,
Boys,139.71,6,Adrian Cantu #2,Corpus Christi West Oso,128.73,83.91,63.5,151.95,299.37,Unlimited,SBD,M,
Boys,139.71,DQ,Daniel Goza- Gonzalez,Pettus,135.35,231.33,111.13,,,Unlimited,SBD,M,
Boys,139.71+,1,Peyton Torres,Beeville Jones,151.05,256.28,195.04,226.8,678.12,Unlimited,SBD,M,
Boys,139.71+,2,Eduardo Lino,Corpus Christi West Oso,181.44,102.06,117.93,183.7,403.7,Unlimited,SBD,M,
Boys,139.71+,DQ,Artemio Herrera,Port Lavaca Calhoun,157.85,,,,,Unlimited,SBD,M,
Boys,,NS,Nathanial Robles,Robstown,,,,,,Unlimited,SBD,M,
